State_Machine/sm_pwm/simulation/qsim/sm_pwm.msim.vcd
$comment
	File created using the following command:
		vcd file sm_pwm.msim.vcd -direction
$end
$date
	Mon May  9 11:00:41 2022
$end
$version
	ModelSim Version 2020.1
$end
$timescale
	1ps
$end

$scope module sm_pwm_vhd_vec_tst $end
$var wire 1 ! baud [2] $end
$var wire 1 " baud [1] $end
$var wire 1 # baud [0] $end
$var wire 1 $ clk $end
$var wire 1 % output $end

$scope module i1 $end
$var wire 1 & gnd $end
$var wire 1 ' vcc $end
$var wire 1 ( unknown $end
$var wire 1 ) devoe $end
$var wire 1 * devclrn $end
$var wire 1 + devpor $end
$var wire 1 , ww_devoe $end
$var wire 1 - ww_devclrn $end
$var wire 1 . ww_devpor $end
$var wire 1 / ww_clk $end
$var wire 1 0 ww_baud [2] $end
$var wire 1 1 ww_baud [1] $end
$var wire 1 2 ww_baud [0] $end
$var wire 1 3 ww_output $end
$var wire 1 4 \~QUARTUS_CREATED_GND~I_combout\ $end
$var wire 1 5 \clk~input_o\ $end
$var wire 1 6 \clk~inputCLKENA0_outclk\ $end
$var wire 1 7 \baud[1]~input_o\ $end
$var wire 1 8 \baud[2]~input_o\ $end
$var wire 1 9 \baud[0]~input_o\ $end
$var wire 1 : \state.SE~DUPLICATE_q\ $end
$var wire 1 ; \state.SF~q\ $end
$var wire 1 < \state.SG~q\ $end
$var wire 1 = \state.SA~0_combout\ $end
$var wire 1 > \state.SA~DUPLICATE_q\ $end
$var wire 1 ? \state.SB~0_combout\ $end
$var wire 1 @ \state.SB~q\ $end
$var wire 1 A \state.SC~q\ $end
$var wire 1 B \state.SD~feeder_combout\ $end
$var wire 1 C \state.SD~q\ $end
$var wire 1 D \state.SE~feeder_combout\ $end
$var wire 1 E \state.SE~q\ $end
$var wire 1 F \state.SA~q\ $end
$var wire 1 G \Selector0~2_combout\ $end
$var wire 1 H \Selector0~0_combout\ $end
$var wire 1 I \Selector0~1_combout\ $end
$var wire 1 J \Selector0~3_combout\ $end
$var wire 1 K \output~reg0_q\ $end
$var wire 1 L \ALT_INV_state.SA~DUPLICATE_q\ $end
$var wire 1 M \ALT_INV_baud[0]~input_o\ $end
$var wire 1 N \ALT_INV_baud[1]~input_o\ $end
$var wire 1 O \ALT_INV_baud[2]~input_o\ $end
$var wire 1 P \ALT_INV_Selector0~2_combout\ $end
$var wire 1 Q \ALT_INV_state.SC~q\ $end
$var wire 1 R \ALT_INV_state.SE~q\ $end
$var wire 1 S \ALT_INV_Selector0~1_combout\ $end
$var wire 1 T \ALT_INV_state.SB~q\ $end
$var wire 1 U \ALT_INV_state.SA~q\ $end
$var wire 1 V \ALT_INV_state.SD~q\ $end
$var wire 1 W \ALT_INV_Selector0~0_combout\ $end
$var wire 1 X \ALT_INV_state.SG~q\ $end
$var wire 1 Y \ALT_INV_state.SF~q\ $end
$upscope $end
$upscope $end
$enddefinitions $end
#0
$dumpvars
0$
0%
0&
1'
x(
1)
1*
1+
1,
1-
1.
0/
03
x4
05
06
07
08
09
0:
0;
0<
1=
0>
1?
0@
0A
0B
0C
0D
0E
0F
1G
1H
1I
0J
0K
1L
1M
1N
1O
0P
1Q
1R
0S
1T
1U
1V
0W
1X
1Y
0!
0"
0#
00
01
02
$end
#2500
1$
1/
15
16
1>
1@
1F
0U
0T
0L
0?
#5000
0$
0/
05
06
#7500
1$
1/
15
16
0@
1A
0Q
1T
1B
#10000
0$
0/
05
06
#12500
1$
1/
15
16
0A
1C
0V
1Q
0B
1D
#15000
0$
0/
05
06
#17500
1$
1/
15
16
1:
0C
1E
0R
1V
0D
#20000
0$
0/
05
06
#22500
1$
1/
15
16
0:
1;
0E
1R
0Y
0H
1W
#25000
0$
0/
05
06
#27500
1$
1/
15
16
0;
1<
0X
1Y
0=
1H
0W
#30000
0$
0/
05
06
#32500
1$
1/
15
16
0<
0>
0F
1U
1L
1X
1=
1?
#35000
0$
0/
05
06
#37500
1$
1/
15
16
1>
1@
1F
0U
0T
0L
0?
#40000
0$
0/
05
06
#42500
1$
1/
15
16
0@
1A
0Q
1T
1B
#45000
0$
0/
05
06
#47500
1$
1/
15
16
0A
1C
0V
1Q
0B
1D
#50000
0$
0/
05
06
#52500
1$
1/
15
16
1:
0C
1E
0R
1V
0D
#55000
0$
0/
05
06
#57500
1$
1/
15
16
0:
1;
0E
1R
0Y
0H
1W
#60000
0$
0/
05
06
#62500
1$
1/
15
16
0;
1<
0X
1Y
0=
1H
0W
#65000
0$
0/
05
06
#67500
1$
1/
15
16
0<
0>
0F
1U
1L
1X
1=
1?
#70000
0$
0/
05
06
#72500
1$
1/
15
16
1>
1@
1F
0U
0T
0L
0?
#75000
0$
0/
05
06
#77500
1$
1/
15
16
0@
1A
0Q
1T
1B
#80000
0$
0/
05
06
#82500
1$
1/
15
16
0A
1C
0V
1Q
0B
1D
#85000
0$
0/
05
06
#87500
1$
1/
15
16
1:
0C
1E
0R
1V
0D
#90000
0$
0/
05
06
#92500
1$
1/
15
16
0:
1;
0E
1R
0Y
0H
1W
#95000
0$
0/
05
06
#97500
1$
1/
15
16
0;
1<
0X
1Y
0=
1H
0W
#100000
0$
0/
05
06
#102500
1$
1/
15
16
0<
0>
0F
1U
1L
1X
1=
1?
#105000
0$
0/
05
06
#107500
1$
1/
15
16
1>
1@
1F
0U
0T
0L
0?
#110000
0$
0/
05
06
#112500
1$
1/
15
16
0@
1A
0Q
1T
1B
#115000
0$
0/
05
06
#117500
1$
1/
15
16
0A
1C
0V
1Q
0B
1D
#120000
0$
0/
05
06
#122500
1$
1/
15
16
1:
0C
1E
0R
1V
0D
#125000
0$
0/
05
06
#127500
1$
1/
15
16
0:
1;
0E
1R
0Y
0H
1W
#130000
0$
0/
05
06
#132500
1$
1/
15
16
0;
1<
0X
1Y
0=
1H
0W
#135000
0$
0/
05
06
#137500
1$
1/
15
16
0<
0>
0F
1U
1L
1X
1=
1?
#140000
0$
1#
0/
12
19
05
06
0M
0G
1P
1J
#142500
1$
1/
15
16
1>
1@
1F
1K
0U
0T
0L
0?
1G
0P
13
0J
1%
#145000
0$
0/
05
06
#147500
1$
1/
15
16
0@
1A
0K
0Q
1T
1B
03
0%
#150000
0$
0/
05
06
#152500
1$
1/
15
16
0A
1C
0V
1Q
0B
1D
#155000
0$
0/
05
06
#157500
1$
1/
15
16
1:
0C
1E
0R
1V
0D
#160000
0$
0/
05
06
#162500
1$
1/
15
16
0:
1;
0E
1R
0Y
0H
1W
#165000
0$
0/
05
06
#167500
1$
1/
15
16
0;
1<
0X
1Y
0=
#170000
0$
0/
05
06
#172500
1$
1/
15
16
0<
0>
0F
1U
1L
1X
1=
1H
1?
0G
1P
0W
1J
#175000
0$
0/
05
06
#177500
1$
1/
15
16
1>
1@
1F
1K
0U
0T
0L
0?
1G
0P
13
0J
1%
#180000
0$
0/
05
06
#182500
1$
1/
15
16
0@
1A
0K
0Q
1T
1B
03
0%
#185000
0$
0/
05
06
#187500
1$
1/
15
16
0A
1C
0V
1Q
0B
1D
#190000
0$
0/
05
06
#192500
1$
1/
15
16
1:
0C
1E
0R
1V
0D
#195000
0$
0/
05
06
#197500
1$
1/
15
16
0:
1;
0E
1R
0Y
0H
1W
#200000
0$
0/
05
06
#202500
1$
1/
15
16
0;
1<
0X
1Y
0=
#205000
0$
0/
05
06
#207500
1$
1/
15
16
0<
0>
0F
1U
1L
1X
1=
1H
1?
0G
1P
0W
1J
#210000
0$
0/
05
06
#212500
1$
1/
15
16
1>
1@
1F
1K
0U
0T
0L
0?
1G
0P
13
0J
1%
#215000
0$
0/
05
06
#217500
1$
1/
15
16
0@
1A
0K
0Q
1T
1B
03
0%
#220000
0$
0/
05
06
#222500
1$
1/
15
16
0A
1C
0V
1Q
0B
1D
#225000
0$
0/
05
06
#227500
1$
1/
15
16
1:
0C
1E
0R
1V
0D
#230000
0$
0/
05
06
#232500
1$
1/
15
16
0:
1;
0E
1R
0Y
0H
1W
#235000
0$
0/
05
06
#237500
1$
1/
15
16
0;
1<
0X
1Y
0=
#240000
0$
0/
05
06
#242500
1$
1/
15
16
0<
0>
0F
1U
1L
1X
1=
1H
1?
0G
1P
0W
1J
#245000
0$
0/
05
06
#247500
1$
1/
15
16
1>
1@
1F
1K
0U
0T
0L
0?
1G
0P
13
0J
1%
#250000
0$
0/
05
06
#252500
1$
1/
15
16
0@
1A
0K
0Q
1T
1B
03
0%
#255000
0$
0/
05
06
#257500
1$
1/
15
16
0A
1C
0V
1Q
0B
1D
#260000
0$
0/
05
06
#262500
1$
1/
15
16
1:
0C
1E
0R
1V
0D
#265000
0$
0/
05
06
#267500
1$
1/
15
16
0:
1;
0E
1R
0Y
0H
1W
#270000
0$
0/
05
06
#272500
1$
1/
15
16
0;
1<
0X
1Y
0=
#275000
0$
0/
05
06
#277500
1$
1/
15
16
0<
0>
0F
1U
1L
1X
1=
1H
1?
0G
1P
0W
1J
#280000
0$
0#
1"
0/
02
11
17
09
05
06
1M
0N
#282500
1$
1/
15
16
1>
1@
1F
1K
0U
0T
0L
0?
0I
1G
0P
1S
13
1%
#285000
0$
0/
05
06
#287500
1$
1/
15
16
0@
1A
0Q
1T
1I
1B
0S
0J
#290000
0$
0/
05
06
#292500
1$
1/
15
16
0A
1C
0K
0V
1Q
0B
1D
03
0%
#295000
0$
0/
05
06
#297500
1$
1/
15
16
1:
0C
1E
0R
1V
0D
#300000
0$
0/
05
06
#302500
1$
1/
15
16
0:
1;
0E
1R
0Y
0H
1W
#305000
0$
0/
05
06
#307500
1$
1/
15
16
0;
1<
0X
1Y
0=
1H
0W
#310000
0$
0/
05
06
#312500
1$
1/
15
16
0<
0>
0F
1U
1L
1X
1=
1?
0G
1P
1J
#315000
0$
0/
05
06
#317500
1$
1/
15
16
1>
1@
1F
1K
0U
0T
0L
0?
0I
1G
0P
1S
13
1%
#320000
0$
0/
05
06
#322500
1$
1/
15
16
0@
1A
0Q
1T
1I
1B
0S
0J
#325000
0$
0/
05
06
#327500
1$
1/
15
16
0A
1C
0K
0V
1Q
0B
1D
03
0%
#330000
0$
0/
05
06
#332500
1$
1/
15
16
1:
0C
1E
0R
1V
0D
#335000
0$
0/
05
06
#337500
1$
1/
15
16
0:
1;
0E
1R
0Y
0H
1W
#340000
0$
0/
05
06
#342500
1$
1/
15
16
0;
1<
0X
1Y
0=
1H
0W
#345000
0$
0/
05
06
#347500
1$
1/
15
16
0<
0>
0F
1U
1L
1X
1=
1?
0G
1P
1J
#350000
0$
0/
05
06
#352500
1$
1/
15
16
1>
1@
1F
1K
0U
0T
0L
0?
0I
1G
0P
1S
13
1%
#355000
0$
0/
05
06
#357500
1$
1/
15
16
0@
1A
0Q
1T
1I
1B
0S
0J
#360000
0$
0/
05
06
#362500
1$
1/
15
16
0A
1C
0K
0V
1Q
0B
1D
03
0%
#365000
0$
0/
05
06
#367500
1$
1/
15
16
1:
0C
1E
0R
1V
0D
#370000
0$
0/
05
06
#372500
1$
1/
15
16
0:
1;
0E
1R
0Y
0H
1W
#375000
0$
0/
05
06
#377500
1$
1/
15
16
0;
1<
0X
1Y
0=
1H
0W
#380000
0$
0/
05
06
#382500
1$
1/
15
16
0<
0>
0F
1U
1L
1X
1=
1?
0G
1P
1J
#385000
0$
0/
05
06
#387500
1$
1/
15
16
1>
1@
1F
1K
0U
0T
0L
0?
0I
1G
0P
1S
13
1%
#390000
0$
0/
05
06
#392500
1$
1/
15
16
0@
1A
0Q
1T
1I
1B
0S
0J
#395000
0$
0/
05
06
#397500
1$
1/
15
16
0A
1C
0K
0V
1Q
0B
1D
03
0%
#400000
0$
0/
05
06
#402500
1$
1/
15
16
1:
0C
1E
0R
1V
0D
#405000
0$
0/
05
06
#407500
1$
1/
15
16
0:
1;
0E
1R
0Y
0H
1W
#410000
0$
0/
05
06
#412500
1$
1/
15
16
0;
1<
0X
1Y
0=
1H
0W
#415000
0$
0/
05
06
#417500
1$
1/
15
16
0<
0>
0F
1U
1L
1X
1=
1?
0G
1P
1J
#420000
0$
1#
0/
12
19
05
06
0M
#422500
1$
1/
15
16
1>
1@
1F
1K
0U
0T
0L
0?
0I
1G
0P
1S
13
1%
#425000
0$
0/
05
06
#427500
1$
1/
15
16
0@
1A
0Q
1T
1I
1B
0G
1P
0S
#430000
0$
0/
05
06
#432500
1$
1/
15
16
0A
1C
0V
1Q
0B
1G
1D
0P
0J
#435000
0$
0/
05
06
#437500
1$
1/
15
16
1:
0C
1E
0K
0R
1V
0D
03
0%
#440000
0$
0/
05
06
#442500
1$
1/
15
16
0:
1;
0E
1R
0Y
0H
1W
#445000
0$
0/
05
06
#447500
1$
1/
15
16
0;
1<
0X
1Y
0=
#450000
0$
0/
05
06
#452500
1$
1/
15
16
0<
0>
0F
1U
1L
1X
1=
1H
1?
0G
1P
0W
1J
#455000
0$
0/
05
06
#457500
1$
1/
15
16
1>
1@
1F
1K
0U
0T
0L
0?
0I
1G
0P
1S
13
1%
#460000
0$
0/
05
06
#462500
1$
1/
15
16
0@
1A
0Q
1T
1I
1B
0G
1P
0S
#465000
0$
0/
05
06
#467500
1$
1/
15
16
0A
1C
0V
1Q
0B
1G
1D
0P
0J
#470000
0$
0/
05
06
#472500
1$
1/
15
16
1:
0C
1E
0K
0R
1V
0D
03
0%
#475000
0$
0/
05
06
#477500
1$
1/
15
16
0:
1;
0E
1R
0Y
0H
1W
#480000
0$
0/
05
06
#482500
1$
1/
15
16
0;
1<
0X
1Y
0=
#485000
0$
0/
05
06
#487500
1$
1/
15
16
0<
0>
0F
1U
1L
1X
1=
1H
1?
0G
1P
0W
1J
#490000
0$
0/
05
06
#492500
1$
1/
15
16
1>
1@
1F
1K
0U
0T
0L
0?
0I
1G
0P
1S
13
1%
#495000
0$
0/
05
06
#497500
1$
1/
15
16
0@
1A
0Q
1T
1I
1B
0G
1P
0S
#500000
0$
0/
05
06
#502500
1$
1/
15
16
0A
1C
0V
1Q
0B
1G
1D
0P
0J
#505000
0$
0/
05
06
#507500
1$
1/
15
16
1:
0C
1E
0K
0R
1V
0D
03
0%
#510000
0$
0/
05
06
#512500
1$
1/
15
16
0:
1;
0E
1R
0Y
0H
1W
#515000
0$
0/
05
06
#517500
1$
1/
15
16
0;
1<
0X
1Y
0=
#520000
0$
0/
05
06
#522500
1$
1/
15
16
0<
0>
0F
1U
1L
1X
1=
1H
1?
0G
1P
0W
1J
#525000
0$
0/
05
06
#527500
1$
1/
15
16
1>
1@
1F
1K
0U
0T
0L
0?
0I
1G
0P
1S
13
1%
#530000
0$
0/
05
06
#532500
1$
1/
15
16
0@
1A
0Q
1T
1I
1B
0G
1P
0S
#535000
0$
0/
05
06
#537500
1$
1/
15
16
0A
1C
0V
1Q
0B
1G
1D
0P
0J
#540000
0$
0/
05
06
#542500
1$
1/
15
16
1:
0C
1E
0K
0R
1V
0D
03
0%
#545000
0$
0/
05
06
#547500
1$
1/
15
16
0:
1;
0E
1R
0Y
0H
1W
#550000
0$
0/
05
06
#552500
1$
1/
15
16
0;
1<
0X
1Y
0=
#555000
0$
0/
05
06
#557500
1$
1/
15
16
0<
0>
0F
1U
1L
1X
1=
1H
1?
0G
1P
0W
1J
#560000
0$
0#
0"
1!
0/
02
01
10
18
07
09
05
06
1M
1N
0O
0I
1G
0P
1S
#562500
1$
1/
15
16
1>
1@
1F
1K
0U
0T
0L
0?
13
1%
#565000
0$
0/
05
06
#567500
1$
1/
15
16
0@
1A
0Q
1T
1I
1B
0G
1P
0S
#570000
0$
0/
05
06
#572500
1$
1/
15
16
0A
1C
0V
1Q
0B
1G
1D
0I
1S
0P
#575000
0$
0/
05
06
#577500
1$
1/
15
16
1:
0C
1E
0R
1V
0D
1I
0S
0J
#580000
0$
0/
05
06
#582500
1$
1/
15
16
0:
1;
0E
0K
1R
0Y
0H
1W
03
0%
#585000
0$
0/
05
06
#587500
1$
1/
15
16
0;
1<
0X
1Y
0=
1H
0W
#590000
0$
0/
05
06
#592500
1$
1/
15
16
0<
0>
0F
1U
1L
1X
1=
1?
0I
1S
1J
#595000
0$
0/
05
06
#597500
1$
1/
15
16
1>
1@
1F
1K
0U
0T
0L
0?
13
1%
#600000
0$
0/
05
06
#602500
1$
1/
15
16
0@
1A
0Q
1T
1I
1B
0G
1P
0S
#605000
0$
0/
05
06
#607500
1$
1/
15
16
0A
1C
0V
1Q
0B
1G
1D
0I
1S
0P
#610000
0$
0/
05
06
#612500
1$
1/
15
16
1:
0C
1E
0R
1V
0D
1I
0S
0J
#615000
0$
0/
05
06
#617500
1$
1/
15
16
0:
1;
0E
0K
1R
0Y
0H
1W
03
0%
#620000
0$
0/
05
06
#622500
1$
1/
15
16
0;
1<
0X
1Y
0=
1H
0W
#625000
0$
0/
05
06
#627500
1$
1/
15
16
0<
0>
0F
1U
1L
1X
1=
1?
0I
1S
1J
#630000
0$
0/
05
06
#632500
1$
1/
15
16
1>
1@
1F
1K
0U
0T
0L
0?
13
1%
#635000
0$
0/
05
06
#637500
1$
1/
15
16
0@
1A
0Q
1T
1I
1B
0G
1P
0S
#640000
0$
0/
05
06
#642500
1$
1/
15
16
0A
1C
0V
1Q
0B
1G
1D
0I
1S
0P
#645000
0$
0/
05
06
#647500
1$
1/
15
16
1:
0C
1E
0R
1V
0D
1I
0S
0J
#650000
0$
0/
05
06
#652500
1$
1/
15
16
0:
1;
0E
0K
1R
0Y
0H
1W
03
0%
#655000
0$
0/
05
06
#657500
1$
1/
15
16
0;
1<
0X
1Y
0=
1H
0W
#660000
0$
0/
05
06
#662500
1$
1/
15
16
0<
0>
0F
1U
1L
1X
1=
1?
0I
1S
1J
#665000
0$
0/
05
06
#667500
1$
1/
15
16
1>
1@
1F
1K
0U
0T
0L
0?
13
1%
#670000
0$
0/
05
06
#672500
1$
1/
15
16
0@
1A
0Q
1T
1I
1B
0G
1P
0S
#675000
0$
0/
05
06
#677500
1$
1/
15
16
0A
1C
0V
1Q
0B
1G
1D
0I
1S
0P
#680000
0$
0/
05
06
#682500
1$
1/
15
16
1:
0C
1E
0R
1V
0D
1I
0S
0J
#685000
0$
0/
05
06
#687500
1$
1/
15
16
0:
1;
0E
0K
1R
0Y
0H
1W
03
0%
#690000
0$
0/
05
06
#692500
1$
1/
15
16
0;
1<
0X
1Y
0=
1H
0W
#695000
0$
0/
05
06
#697500
1$
1/
15
16
0<
0>
0F
1U
1L
1X
1=
1?
0I
1S
1J
#700000
0$
1#
0/
12
19
05
06
0M
0G
1P
#702500
1$
1/
15
16
1>
1@
1F
1K
0U
0T
0L
0?
1G
0P
13
1%
#705000
0$
0/
05
06
#707500
1$
1/
15
16
0@
1A
0Q
1T
1I
1B
0G
1P
0S
#710000
0$
0/
05
06
#712500
1$
1/
15
16
0A
1C
0V
1Q
0B
1G
1D
0I
1S
0P
#715000
0$
0/
05
06
#717500
1$
1/
15
16
1:
0C
1E
0R
1V
0D
1I
0G
1P
0S
#720000
0$
0/
05
06
#722500
1$
1/
15
16
0:
1;
0E
1R
0Y
0H
1G
0P
1W
0J
#725000
0$
0/
05
06
#727500
1$
1/
15
16
0;
1<
0K
0X
1Y
0=
03
0%
#730000
0$
0/
05
06
#732500
1$
1/
15
16
0<
0>
0F
1U
1L
1X
1=
1H
1?
0I
0G
1P
1S
0W
1J
#735000
0$
0/
05
06
#737500
1$
1/
15
16
1>
1@
1F
1K
0U
0T
0L
0?
1G
0P
13
1%
#740000
0$
0/
05
06
#742500
1$
1/
15
16
0@
1A
0Q
1T
1I
1B
0G
1P
0S
#745000
0$
0/
05
06
#747500
1$
1/
15
16
0A
1C
0V
1Q
0B
1G
1D
0I
1S
0P
#750000
0$
0/
05
06
#752500
1$
1/
15
16
1:
0C
1E
0R
1V
0D
1I
0G
1P
0S
#755000
0$
0/
05
06
#757500
1$
1/
15
16
0:
1;
0E
1R
0Y
0H
1G
0P
1W
0J
#760000
0$
0/
05
06
#762500
1$
1/
15
16
0;
1<
0K
0X
1Y
0=
03
0%
#765000
0$
0/
05
06
#767500
1$
1/
15
16
0<
0>
0F
1U
1L
1X
1=
1H
1?
0I
0G
1P
1S
0W
1J
#770000
0$
0/
05
06
#772500
1$
1/
15
16
1>
1@
1F
1K
0U
0T
0L
0?
1G
0P
13
1%
#775000
0$
0/
05
06
#777500
1$
1/
15
16
0@
1A
0Q
1T
1I
1B
0G
1P
0S
#780000
0$
0/
05
06
#782500
1$
1/
15
16
0A
1C
0V
1Q
0B
1G
1D
0I
1S
0P
#785000
0$
0/
05
06
#787500
1$
1/
15
16
1:
0C
1E
0R
1V
0D
1I
0G
1P
0S
#790000
0$
0/
05
06
#792500
1$
1/
15
16
0:
1;
0E
1R
0Y
0H
1G
0P
1W
0J
#795000
0$
0/
05
06
#797500
1$
1/
15
16
0;
1<
0K
0X
1Y
0=
03
0%
#800000
0$
0/
05
06
#802500
1$
1/
15
16
0<
0>
0F
1U
1L
1X
1=
1H
1?
0I
0G
1P
1S
0W
1J
#805000
0$
0/
05
06
#807500
1$
1/
15
16
1>
1@
1F
1K
0U
0T
0L
0?
1G
0P
13
1%
#810000
0$
0/
05
06
#812500
1$
1/
15
16
0@
1A
0Q
1T
1I
1B
0G
1P
0S
#815000
0$
0/
05
06
#817500
1$
1/
15
16
0A
1C
0V
1Q
0B
1G
1D
0I
1S
0P
#820000
0$
0/
05
06
#822500
1$
1/
15
16
1:
0C
1E
0R
1V
0D
1I
0G
1P
0S
#825000
0$
0/
05
06
#827500
1$
1/
15
16
0:
1;
0E
1R
0Y
0H
1G
0P
1W
0J
#830000
0$
0/
05
06
#832500
1$
1/
15
16
0;
1<
0K
0X
1Y
0=
03
0%
#835000
0$
0/
05
06
#837500
1$
1/
15
16
0<
0>
0F
1U
1L
1X
1=
1H
1?
0I
0G
1P
1S
0W
1J
#840000
0$
0#
1"
0/
02
11
17
09
05
06
1M
0N
#842500
1$
1/
15
16
1>
1@
1F
1K
0U
0T
0L
0?
1G
0P
13
1%
#845000
0$
0/
05
06
#847500
1$
1/
15
16
0@
1A
0Q
1T
1I
1B
0G
1P
0S
#850000
0$
0/
05
06
#852500
1$
1/
15
16
0A
1C
0V
1Q
0B
1G
1D
0I
1S
0P
#855000
0$
0/
05
06
#857500
1$
1/
15
16
1:
0C
1E
0R
1V
0D
1I
0G
1P
0S
#860000
0$
0/
05
06
#862500
1$
1/
15
16
0:
1;
0E
1R
0Y
0H
1G
0P
1W
#865000
0$
0/
05
06
#867500
1$
1/
15
16
0;
1<
0X
1Y
0=
1H
0W
0J
#870000
0$
0/
05
06
#872500
1$
1/
15
16
0<
0>
0F
0K
1U
1L
1X
1=
1?
0I
0G
1P
1S
03
1J
0%
#875000
0$
0/
05
06
#877500
1$
1/
15
16
1>
1@
1F
1K
0U
0T
0L
0?
1G
0P
13
1%
#880000
0$
0/
05
06
#882500
1$
1/
15
16
0@
1A
0Q
1T
1I
1B
0G
1P
0S
#885000
0$
0/
05
06
#887500
1$
1/
15
16
0A
1C
0V
1Q
0B
1G
1D
0I
1S
0P
#890000
0$
0/
05
06
#892500
1$
1/
15
16
1:
0C
1E
0R
1V
0D
1I
0G
1P
0S
#895000
0$
0/
05
06
#897500
1$
1/
15
16
0:
1;
0E
1R
0Y
0H
1G
0P
1W
#900000
0$
0/
05
06
#902500
1$
1/
15
16
0;
1<
0X
1Y
0=
1H
0W
0J
#905000
0$
0/
05
06
#907500
1$
1/
15
16
0<
0>
0F
0K
1U
1L
1X
1=
1?
0I
0G
1P
1S
03
1J
0%
#910000
0$
0/
05
06
#912500
1$
1/
15
16
1>
1@
1F
1K
0U
0T
0L
0?
1G
0P
13
1%
#915000
0$
0/
05
06
#917500
1$
1/
15
16
0@
1A
0Q
1T
1I
1B
0G
1P
0S
#920000
0$
0/
05
06
#922500
1$
1/
15
16
0A
1C
0V
1Q
0B
1G
1D
0I
1S
0P
#925000
0$
0/
05
06
#927500
1$
1/
15
16
1:
0C
1E
0R
1V
0D
1I
0G
1P
0S
#930000
0$
0/
05
06
#932500
1$
1/
15
16
0:
1;
0E
1R
0Y
0H
1G
0P
1W
#935000
0$
0/
05
06
#937500
1$
1/
15
16
0;
1<
0X
1Y
0=
1H
0W
0J
#940000
0$
0/
05
06
#942500
1$
1/
15
16
0<
0>
0F
0K
1U
1L
1X
1=
1?
0I
0G
1P
1S
03
1J
0%
#945000
0$
0/
05
06
#947500
1$
1/
15
16
1>
1@
1F
1K
0U
0T
0L
0?
1G
0P
13
1%
#950000
0$
0/
05
06
#952500
1$
1/
15
16
0@
1A
0Q
1T
1I
1B
0G
1P
0S
#955000
0$
0/
05
06
#957500
1$
1/
15
16
0A
1C
0V
1Q
0B
1G
1D
0I
1S
0P
#960000
0$
0/
05
06
#962500
1$
1/
15
16
1:
0C
1E
0R
1V
0D
1I
0G
1P
0S
#965000
0$
0/
05
06
#967500
1$
1/
15
16
0:
1;
0E
1R
0Y
0H
1G
0P
1W
#970000
0$
0/
05
06
#972500
1$
1/
15
16
0;
1<
0X
1Y
0=
1H
0W
0J
#975000
0$
0/
05
06
#977500
1$
1/
15
16
0<
0>
0F
0K
1U
1L
1X
1=
1?
0I
0G
1P
1S
03
1J
0%
#980000
0$
1#
0/
12
19
05
06
0M
#982500
1$
1/
15
16
1>
1@
1F
1K
0U
0T
0L
0?
1G
0P
13
1%
#985000
0$
0/
05
06
#987500
1$
1/
15
16
0@
1A
0Q
1T
1I
1B
0G
1P
0S
#990000
0$
0/
05
06
#992500
1$
1/
15
16
0A
1C
0V
1Q
0B
1G
1D
0I
1S
0P
#995000
0$
0/
05
06
#997500
1$
1/
15
16
1:
0C
1E
0R
1V
0D
1I
0G
1P
0S
