State_Machine/sm_ex3/simulation/qsim/sm_ex3.msim.vcd
$comment
	File created using the following command:
		vcd file sm_ex3.msim.vcd -direction
$end
$date
	Sat May  7 17:07:28 2022
$end
$version
	ModelSim Version 2020.1
$end
$timescale
	1ps
$end

$scope module sm_ex3_vhd_vec_tst $end
$var wire 1 ! clk $end
$var wire 1 " output $end

$scope module i1 $end
$var wire 1 # gnd $end
$var wire 1 $ vcc $end
$var wire 1 % unknown $end
$var wire 1 & devoe $end
$var wire 1 ' devclrn $end
$var wire 1 ( devpor $end
$var wire 1 ) ww_devoe $end
$var wire 1 * ww_devclrn $end
$var wire 1 + ww_devpor $end
$var wire 1 , ww_clk $end
$var wire 1 - ww_output $end
$var wire 1 . \~QUARTUS_CREATED_GND~I_combout\ $end
$var wire 1 / \clk~input_o\ $end
$var wire 1 0 \clk~inputCLKENA0_outclk\ $end
$var wire 1 1 \state.SH~DUPLICATE_q\ $end
$var wire 1 2 \state.SA~0_combout\ $end
$var wire 1 3 \state.SA~q\ $end
$var wire 1 4 \state.SB~0_combout\ $end
$var wire 1 5 \state.SB~q\ $end
$var wire 1 6 \state.SC~q\ $end
$var wire 1 7 \state.SD~feeder_combout\ $end
$var wire 1 8 \state.SD~q\ $end
$var wire 1 9 \state.SE~feeder_combout\ $end
$var wire 1 : \state.SE~q\ $end
$var wire 1 ; \state.SF~feeder_combout\ $end
$var wire 1 < \state.SF~q\ $end
$var wire 1 = \state.SG~feeder_combout\ $end
$var wire 1 > \state.SG~q\ $end
$var wire 1 ? \state.SH~q\ $end
$var wire 1 @ \output~2_combout\ $end
$var wire 1 A \output~reg0_q\ $end
$var wire 1 B \ALT_INV_state.SH~DUPLICATE_q\ $end
$var wire 1 C \ALT_INV_state.SC~q\ $end
$var wire 1 D \ALT_INV_state.SD~q\ $end
$var wire 1 E \ALT_INV_state.SE~q\ $end
$var wire 1 F \ALT_INV_state.SF~q\ $end
$var wire 1 G \ALT_INV_state.SH~q\ $end
$var wire 1 H \ALT_INV_state.SA~q\ $end
$upscope $end
$upscope $end
$enddefinitions $end
#0
$dumpvars
0!
0"
0#
1$
x%
1&
1'
1(
1)
1*
1+
0,
0-
x.
0/
00
01
12
03
14
05
06
07
08
09
0:
0;
0<
0=
0>
0?
0@
0A
1B
1C
1D
1E
1F
1G
1H
$end
#12500
1!
1,
1/
10
13
15
0H
04
1@
#25000
0!
0,
0/
00
#37500
1!
1,
1/
10
05
16
1A
0C
17
1-
1"
#50000
0!
0,
0/
00
#62500
1!
1,
1/
10
06
18
0D
1C
07
19
#75000
0!
0,
0/
00
#87500
1!
1,
1/
10
08
1:
0E
1D
09
1;
#100000
0!
0,
0/
00
#112500
1!
1,
1/
10
0:
1<
0F
1E
0;
1=
#125000
0!
0,
0/
00
#137500
1!
1,
1/
10
0<
1>
1F
0=
#150000
0!
0,
0/
00
#162500
1!
1,
1/
10
11
0>
1?
0G
0B
02
0@
#175000
0!
0,
0/
00
#187500
1!
1,
1/
10
01
03
0?
0A
1G
1H
1B
12
14
0-
0"
#200000
0!
0,
0/
00
#212500
1!
1,
1/
10
13
15
0H
04
1@
#225000
0!
0,
0/
00
#237500
1!
1,
1/
10
05
16
1A
0C
17
1-
1"
#250000
0!
0,
0/
00
#262500
1!
1,
1/
10
06
18
0D
1C
07
19
#275000
0!
0,
0/
00
#287500
1!
1,
1/
10
08
1:
0E
1D
09
1;
#300000
0!
0,
0/
00
#312500
1!
1,
1/
10
0:
1<
0F
1E
0;
1=
#325000
0!
0,
0/
00
#337500
1!
1,
1/
10
0<
1>
1F
0=
#350000
0!
0,
0/
00
#362500
1!
1,
1/
10
11
0>
1?
0G
0B
02
0@
#375000
0!
0,
0/
00
#387500
1!
1,
1/
10
01
03
0?
0A
1G
1H
1B
12
14
0-
0"
#400000
0!
0,
0/
00
#412500
1!
1,
1/
10
13
15
0H
04
1@
#425000
0!
0,
0/
00
#437500
1!
1,
1/
10
05
16
1A
0C
17
1-
1"
#450000
0!
0,
0/
00
#462500
1!
1,
1/
10
06
18
0D
1C
07
19
#475000
0!
0,
0/
00
#487500
1!
1,
1/
10
08
1:
0E
1D
09
1;
#500000
0!
0,
0/
00
#512500
1!
1,
1/
10
0:
1<
0F
1E
0;
1=
#525000
0!
0,
0/
00
#537500
1!
1,
1/
10
0<
1>
1F
0=
#550000
0!
0,
0/
00
#562500
1!
1,
1/
10
11
0>
1?
0G
0B
02
0@
#575000
0!
0,
0/
00
#587500
1!
1,
1/
10
01
03
0?
0A
1G
1H
1B
12
14
0-
0"
#600000
0!
0,
0/
00
#612500
1!
1,
1/
10
13
15
0H
04
1@
#625000
0!
0,
0/
00
#637500
1!
1,
1/
10
05
16
1A
0C
17
1-
1"
#650000
0!
0,
0/
00
#662500
1!
1,
1/
10
06
18
0D
1C
07
19
#675000
0!
0,
0/
00
#687500
1!
1,
1/
10
08
1:
0E
1D
09
1;
#700000
0!
0,
0/
00
#712500
1!
1,
1/
10
0:
1<
0F
1E
0;
1=
#725000
0!
0,
0/
00
#737500
1!
1,
1/
10
0<
1>
1F
0=
#750000
0!
0,
0/
00
#762500
1!
1,
1/
10
11
0>
1?
0G
0B
02
0@
#775000
0!
0,
0/
00
#787500
1!
1,
1/
10
01
03
0?
0A
1G
1H
1B
12
14
0-
0"
#800000
0!
0,
0/
00
#812500
1!
1,
1/
10
13
15
0H
04
1@
#825000
0!
0,
0/
00
#837500
1!
1,
1/
10
05
16
1A
0C
17
1-
1"
#850000
0!
0,
0/
00
#862500
1!
1,
1/
10
06
18
0D
1C
07
19
#875000
0!
0,
0/
00
#887500
1!
1,
1/
10
08
1:
0E
1D
09
1;
#900000
0!
0,
0/
00
#912500
1!
1,
1/
10
0:
1<
0F
1E
0;
1=
#925000
0!
0,
0/
00
#937500
1!
1,
1/
10
0<
1>
1F
0=
#950000
0!
0,
0/
00
#962500
1!
1,
1/
10
11
0>
1?
0G
0B
02
0@
#975000
0!
0,
0/
00
#987500
1!
1,
1/
10
01
03
0?
0A
1G
1H
1B
12
14
0-
0"
