flipflop_jk/simulation/qsim/flipflop_jk.msim.vcd
$comment
	File created using the following command:
		vcd file flipflop_jk.msim.vcd -direction
$end
$date
	Sun Mar 27 13:06:44 2022
$end
$version
	ModelSim Version 2020.1
$end
$timescale
	1ps
$end

$scope module flipflop_jk_vlg_vec_tst $end
$var reg 1 ! clk $end
$var reg 1 " j $end
$var reg 1 # k $end
$var wire 1 $ q $end
$var wire 1 % q_bar $end

$scope module i1 $end
$var wire 1 & gnd $end
$var wire 1 ' vcc $end
$var wire 1 ( unknown $end
$var tri1 1 ) devclrn $end
$var tri1 1 * devpor $end
$var tri1 1 + devoe $end
$var wire 1 , q~output_o $end
$var wire 1 - q_bar~output_o $end
$var wire 1 . clk~input_o $end
$var wire 1 / k~input_o $end
$var wire 1 0 j~input_o $end
$var wire 1 1 a[2]~1_combout $end
$var wire 1 2 q~1_combout $end
$var wire 1 3 q_bar~0_combout $end
$upscope $end
$upscope $end
$enddefinitions $end
#0
$dumpvars
0!
0"
0#
x$
x%
0&
1'
x(
1)
1*
1+
x,
x-
0.
0/
00
x1
x2
x3
$end
#5000
1!
1.
#10000
0!
0.
#15000
1"
1!
10
1.
#20000
0!
0.
#25000
1#
1!
1/
1.
#30000
0"
0!
00
0.
#35000
1!
1.
#40000
0!
0.
#45000
1"
1!
10
1.
#50000
0#
0!
0/
0.
#55000
1!
1.
#60000
0"
0!
00
0.
#65000
1!
1.
#70000
0!
0.
#75000
1#
1"
1!
1/
10
1.
#80000
0!
0.
#85000
1!
1.
#90000
0"
0!
00
0.
#95000
1!
1.
#100000
0#
0!
0/
0.
#105000
1"
1!
10
1.
#110000
0!
0.
#115000
1!
1.
#120000
0"
0!
00
0.
#125000
1#
1!
1/
1.
#130000
0!
0.
#135000
1"
1!
10
1.
#140000
0!
0.
#145000
1!
1.
#150000
0#
0"
0!
0/
00
0.
#155000
1!
1.
#160000
0!
0.
#165000
1"
1!
10
1.
#170000
0!
0.
#175000
1#
1!
1/
1.
#180000
0"
0!
00
0.
#185000
1!
1.
#190000
0!
0.
#195000
1"
1!
10
1.
#200000
0#
0!
0/
0.
#205000
1!
1.
#210000
0"
0!
00
0.
#215000
1!
1.
#220000
0!
0.
#225000
1#
1"
1!
1/
10
1.
#230000
0!
0.
#235000
1!
1.
#240000
0"
0!
00
0.
#245000
1!
1.
#250000
0#
0!
0/
0.
#255000
1"
1!
10
1.
#260000
0!
0.
#265000
1!
1.
#270000
0"
0!
00
0.
#275000
1#
1!
1/
1.
#280000
0!
0.
#285000
1"
1!
10
1.
#290000
0!
0.
#295000
1!
1.
#300000
0#
0"
0!
0/
00
0.
#305000
1!
1.
#310000
0!
0.
#315000
1"
1!
10
1.
#320000
0!
0.
#325000
1#
1!
1/
1.
#330000
0"
0!
00
0.
#335000
1!
1.
#340000
0!
0.
#345000
1"
1!
10
1.
#350000
0#
0!
0/
0.
#355000
1!
1.
#360000
0"
0!
00
0.
#365000
1!
1.
#370000
0!
0.
#375000
1#
1"
1!
1/
10
1.
#380000
0!
0.
#385000
1!
1.
#390000
0"
0!
00
0.
#395000
1!
1.
#400000
0#
0!
0/
0.
#405000
1"
1!
10
1.
#410000
0!
0.
#415000
1!
1.
#420000
0"
0!
00
0.
#425000
1#
1!
1/
1.
#430000
0!
0.
#435000
1"
1!
10
1.
#440000
0!
0.
#445000
1!
1.
#450000
0#
0"
0!
0/
00
0.
#455000
1!
1.
#460000
0!
0.
#465000
1"
1!
10
1.
#470000
0!
0.
#475000
1#
1!
1/
1.
#480000
0"
0!
00
0.
#485000
1!
1.
#490000
0!
0.
#495000
1"
1!
10
1.
#500000
0#
0!
0/
0.
#505000
1!
1.
#510000
0"
0!
00
0.
#515000
1!
1.
#520000
0!
0.
#525000
1#
1"
1!
1/
10
1.
#530000
0!
0.
#535000
1!
1.
#540000
0"
0!
00
0.
#545000
1!
1.
#550000
0#
0!
0/
0.
#555000
1"
1!
10
1.
#560000
0!
0.
#565000
1!
1.
#570000
0"
0!
00
0.
#575000
1#
1!
1/
1.
#580000
0!
0.
#585000
1"
1!
10
1.
#590000
0!
0.
#595000
1!
1.
#600000
0#
0"
0!
0/
00
0.
#605000
1!
1.
#610000
0!
0.
#615000
1"
1!
10
1.
#620000
0!
0.
#625000
1#
1!
1/
1.
#630000
0"
0!
00
0.
#635000
1!
1.
#640000
0!
0.
#645000
1"
1!
10
1.
#650000
0#
0!
0/
0.
#655000
1!
1.
#660000
0"
0!
00
0.
#665000
1!
1.
#670000
0!
0.
#675000
1#
1"
1!
1/
10
1.
#680000
0!
0.
#685000
1!
1.
#690000
0"
0!
00
0.
#695000
1!
1.
#700000
0#
0!
0/
0.
#705000
1"
1!
10
1.
#710000
0!
0.
#715000
1!
1.
#720000
0"
0!
00
0.
#725000
1#
1!
1/
1.
#730000
0!
0.
#735000
1"
1!
10
1.
#740000
0!
0.
#745000
1!
1.
#750000
0#
0"
0!
0/
00
0.
#755000
1!
1.
#760000
0!
0.
#765000
1"
1!
10
1.
#770000
0!
0.
#775000
1#
1!
1/
1.
#780000
0"
0!
00
0.
#785000
1!
1.
#790000
0!
0.
#795000
1"
1!
10
1.
#800000
0#
0!
0/
0.
#805000
1!
1.
#810000
0"
0!
00
0.
#815000
1!
1.
#820000
0!
0.
#825000
1#
1"
1!
1/
10
1.
#830000
0!
0.
#835000
1!
1.
#840000
0"
0!
00
0.
#845000
1!
1.
#850000
0#
0!
0/
0.
#855000
1"
1!
10
1.
#860000
0!
0.
#865000
1!
1.
#870000
0"
0!
00
0.
#875000
1#
1!
1/
1.
#880000
0!
0.
#885000
1"
1!
10
1.
#890000
0!
0.
#895000
1!
1.
#900000
0#
0"
0!
0/
00
0.
#905000
1!
1.
#910000
0!
0.
#915000
1"
1!
10
1.
#920000
0!
0.
#925000
1#
1!
1/
1.
#930000
0"
0!
00
0.
#935000
1!
1.
#940000
0!
0.
#945000
1"
1!
10
1.
#950000
0#
0!
0/
0.
#955000
1!
1.
#960000
0"
0!
00
0.
#965000
1!
1.
#970000
0!
0.
#975000
1#
1"
1!
1/
10
1.
#980000
0!
0.
#985000
1!
1.
#990000
0"
0!
00
0.
#995000
1!
1.
