somador_4bits/simulation/qsim/somador_4bits.msim.vcd
$comment
	File created using the following command:
		vcd file somador_4bits.msim.vcd -direction
$end
$date
	Sun Mar 27 12:41:20 2022
$end
$version
	ModelSim Version 2020.1
$end
$timescale
	1ps
$end

$scope module somador_4bits_vlg_vec_tst $end
$var reg 4 ! A [3:0] $end
$var reg 4 " B [3:0] $end
$var wire 1 # Z [3] $end
$var wire 1 $ Z [2] $end
$var wire 1 % Z [1] $end
$var wire 1 & Z [0] $end

$scope module i1 $end
$var wire 1 ' gnd $end
$var wire 1 ( vcc $end
$var wire 1 ) unknown $end
$var tri1 1 * devclrn $end
$var tri1 1 + devpor $end
$var tri1 1 , devoe $end
$var wire 1 - Z[0]~output_o $end
$var wire 1 . Z[1]~output_o $end
$var wire 1 / Z[2]~output_o $end
$var wire 1 0 Z[3]~output_o $end
$var wire 1 1 B[0]~input_o $end
$var wire 1 2 A[0]~input_o $end
$var wire 1 3 Add0~1_sumout $end
$var wire 1 4 B[1]~input_o $end
$var wire 1 5 A[1]~input_o $end
$var wire 1 6 Add0~2 $end
$var wire 1 7 Add0~5_sumout $end
$var wire 1 8 B[2]~input_o $end
$var wire 1 9 A[2]~input_o $end
$var wire 1 : Add0~6 $end
$var wire 1 ; Add0~9_sumout $end
$var wire 1 < B[3]~input_o $end
$var wire 1 = A[3]~input_o $end
$var wire 1 > Add0~10 $end
$var wire 1 ? Add0~13_sumout $end
$upscope $end
$upscope $end
$enddefinitions $end
#0
$dumpvars
b0 !
b1010 "
0&
1%
0$
1#
0'
1(
x)
1*
1+
1,
0-
1.
0/
10
01
02
03
14
05
06
17
08
09
0:
0;
1<
0=
0>
1?
$end
#50000
b1110 "
18
1;
1/
1$
#100000
b1 !
b1111 "
11
12
16
1:
07
0.
1>
0%
0;
0/
0$
0?
00
0#
#150000
b111 "
b101 "
04
0<
0:
1?
17
1.
10
0>
1#
1%
1;
1/
1$
0?
00
0#
#200000
b11 !
b10 !
b111 "
14
02
15
1:
06
13
1-
1>
1&
0;
07
0.
0/
0$
0%
1?
10
1#
#250000
b11 "
b1011 "
b1001 "
04
08
1<
0>
0:
0?
1;
17
1.
1/
00
0#
1$
1%
1?
0;
0/
10
1#
0$
#300000
b11 !
b1101 "
b101 "
b111 "
14
18
0<
12
16
1:
03
0?
1;
07
0.
1/
00
0-
1>
0&
0#
1$
0%
17
0;
0/
1.
1%
0$
1?
10
1#
#350000
b110 "
b10 "
b1010 "
b1000 "
01
04
08
1<
0>
06
0?
1;
07
13
1-
0.
1/
00
0:
0#
1$
0%
1&
1?
17
1.
10
1#
1%
0;
0/
0$
#400000
b111 !
b101 !
b100 !
b0 "
b10 "
14
0<
02
05
19
1;
03
0?
00
0-
1/
1$
0&
0#
#450000
b110 "
18
1>
0;
0/
0$
1?
10
1#
#500000
b111 "
b101 !
b1111 "
b1101 "
12
11
04
1<
16
0?
07
0.
00
0#
0%
17
1.
1%
#550000
b1100 "
b100 "
01
0<
06
1?
13
1-
10
1#
1&
07
0.
0%
#600000
b111 !
b0 "
b110 !
b10 "
b11 "
b1011 "
11
14
08
1<
02
15
1:
0>
0?
1;
1/
00
1>
0#
1$
0;
1?
10
0/
0$
1#
0?
00
0#
#700000
b1111 "
b111 !
b1101 "
b101 "
12
04
18
0<
0:
16
1?
1;
17
03
0-
1.
1/
10
1:
1#
1$
1%
0&
0;
07
0.
0/
0$
0%
1;
1/
1$
#750000
b100 "
b110 "
01
14
06
17
13
1-
1.
1%
1&
07
0.
0%
#800000
b1111 !
b1011 !
b1001 !
b1000 !
b111 "
b101 "
11
04
02
05
09
1=
0:
0?
0;
0/
00
0>
0#
0$
1;
1/
1$
1?
10
1#
#850000
b1 "
b1001 "
b1000 "
b1010 "
01
14
08
1<
0?
0;
17
03
0-
1.
0/
00
0#
0$
1%
0&
#900000
b1001 !
b10 "
0<
12
13
1?
10
1-
1&
1#
#950000
b110 "
b100 "
04
18
1;
07
0.
1/
1$
0%
