State_Machine/sm_ex1/simulation/qsim/sm_ex1.msim.vcd
$comment
	File created using the following command:
		vcd file sm_ex1.msim.vcd -direction
$end
$date
	Wed May  4 01:44:49 2022
$end
$version
	ModelSim Version 2020.1
$end
$timescale
	1ps
$end

$scope module sm_ex1_vhd_vec_tst $end
$var wire 1 ! clk $end
$var wire 1 " count [2] $end
$var wire 1 # count [1] $end
$var wire 1 $ count [0] $end
$var wire 1 % reset $end

$scope module i1 $end
$var wire 1 & gnd $end
$var wire 1 ' vcc $end
$var wire 1 ( unknown $end
$var wire 1 ) devoe $end
$var wire 1 * devclrn $end
$var wire 1 + devpor $end
$var wire 1 , ww_devoe $end
$var wire 1 - ww_devclrn $end
$var wire 1 . ww_devpor $end
$var wire 1 / ww_clk $end
$var wire 1 0 ww_reset $end
$var wire 1 1 ww_count [2] $end
$var wire 1 2 ww_count [1] $end
$var wire 1 3 ww_count [0] $end
$var wire 1 4 \~QUARTUS_CREATED_GND~I_combout\ $end
$var wire 1 5 \clk~input_o\ $end
$var wire 1 6 \clk~inputCLKENA0_outclk\ $end
$var wire 1 7 \state.SD~feeder_combout\ $end
$var wire 1 8 \reset~input_o\ $end
$var wire 1 9 \state.SD~q\ $end
$var wire 1 : \state.SE~feeder_combout\ $end
$var wire 1 ; \state.SE~q\ $end
$var wire 1 < \state.SF~DUPLICATE_q\ $end
$var wire 1 = \state.SA~0_combout\ $end
$var wire 1 > \state.SA~DUPLICATE_q\ $end
$var wire 1 ? \state.SB~0_combout\ $end
$var wire 1 @ \state.SB~q\ $end
$var wire 1 A \state.SC~q\ $end
$var wire 1 B \state.SA~q\ $end
$var wire 1 C \WideOr0~combout\ $end
$var wire 1 D \count[0]~reg0_q\ $end
$var wire 1 E \count~4_combout\ $end
$var wire 1 F \count[1]~reg0_q\ $end
$var wire 1 G \state.SF~q\ $end
$var wire 1 H \state.SE~DUPLICATE_q\ $end
$var wire 1 I \count~5_combout\ $end
$var wire 1 J \count[2]~reg0_q\ $end
$var wire 1 K \ALT_INV_state.SF~DUPLICATE_q\ $end
$var wire 1 L \ALT_INV_state.SE~DUPLICATE_q\ $end
$var wire 1 M \ALT_INV_state.SA~DUPLICATE_q\ $end
$var wire 1 N \ALT_INV_reset~input_o\ $end
$var wire 1 O \ALT_INV_state.SF~q\ $end
$var wire 1 P \ALT_INV_state.SD~q\ $end
$var wire 1 Q \ALT_INV_state.SE~q\ $end
$var wire 1 R \ALT_INV_state.SC~q\ $end
$var wire 1 S \ALT_INV_state.SA~q\ $end
$upscope $end
$upscope $end
$enddefinitions $end
#0
$dumpvars
0!
0%
0&
1'
x(
1)
1*
1+
1,
1-
1.
0/
00
x4
05
06
07
08
09
0:
0;
0<
1=
0>
1?
0@
0A
0B
0C
0D
0E
0F
0G
0H
0I
0J
1K
1L
1M
1N
1O
1P
1Q
1R
1S
0"
0#
0$
01
02
03
$end
#5000
1!
1/
15
16
1>
1@
1B
0S
0M
0?
1C
#10000
0!
0/
05
06
#15000
1!
1/
15
16
0@
1A
1D
0R
17
0C
1E
13
1$
#20000
0!
0/
05
06
#25000
1!
1/
15
16
19
0A
0D
1F
1R
0P
1:
07
1C
12
03
0$
1#
#30000
0!
0/
05
06
#35000
1!
1/
15
16
09
1;
1D
1H
0L
0Q
1P
0:
0E
0C
1I
13
1$
#40000
0!
0/
05
06
#45000
1!
1/
15
16
0;
1<
0D
0F
1G
0H
1J
1L
0O
0K
1Q
1C
0=
11
02
03
0$
0#
1"
#50000
0!
0/
05
06
#55000
1!
1/
15
16
0<
0>
0B
1D
0G
1O
1S
1M
1K
1=
1?
0C
0I
13
1$
#60000
0!
0/
05
06
#65000
1!
1/
15
16
1>
1@
1B
0D
0J
0S
0M
0?
1C
01
03
0$
0"
#70000
0!
0/
05
06
#75000
1!
1/
15
16
0@
1A
1D
0R
17
0C
1E
13
1$
#80000
0!
0/
05
06
#85000
1!
1/
15
16
19
0A
0D
1F
1R
0P
1:
07
1C
12
03
0$
1#
#90000
0!
0/
05
06
#95000
1!
1/
15
16
09
1;
1D
1H
0L
0Q
1P
0:
0E
0C
1I
13
1$
#100000
0!
0/
05
06
#105000
1!
1/
15
16
0;
1<
0D
0F
1G
0H
1J
1L
0O
0K
1Q
1C
0=
11
02
03
0$
0#
1"
#110000
0!
0/
05
06
#115000
1!
1/
15
16
0<
0>
0B
1D
0G
1O
1S
1M
1K
1=
1?
0C
0I
13
1$
#120000
0!
0/
05
06
#125000
1!
1/
15
16
1>
1@
1B
0D
0J
0S
0M
0?
1C
01
03
0$
0"
#130000
0!
0/
05
06
#135000
1!
1/
15
16
0@
1A
1D
0R
17
0C
1E
13
1$
#140000
0!
0/
05
06
#145000
1!
1/
15
16
19
0A
0D
1F
1R
0P
1:
07
1C
12
03
0$
1#
#150000
0!
0/
05
06
#155000
1!
1/
15
16
09
1;
1D
1H
0L
0Q
1P
0:
0E
0C
1I
13
1$
#160000
0!
0/
05
06
#165000
1!
1/
15
16
0;
1<
0D
0F
1G
0H
1J
1L
0O
0K
1Q
1C
0=
11
02
03
0$
0#
1"
#170000
0!
0/
05
06
#175000
1!
1/
15
16
0<
0>
0B
1D
0G
1O
1S
1M
1K
1=
1?
0C
0I
13
1$
#180000
0!
0/
05
06
#185000
1!
1/
15
16
1>
1@
1B
0D
0J
0S
0M
0?
1C
01
03
0$
0"
#190000
0!
0/
05
06
#195000
1!
1/
15
16
0@
1A
1D
0R
17
0C
1E
13
1$
#200000
0!
0/
05
06
#205000
1!
1/
15
16
19
0A
0D
1F
1R
0P
1:
07
1C
12
03
0$
1#
#210000
0!
0/
05
06
#215000
1!
1/
15
16
09
1;
1D
1H
0L
0Q
1P
0:
0E
0C
1I
13
1$
#220000
0!
0/
05
06
#225000
1!
1/
15
16
0;
1<
0D
0F
1G
0H
1J
1L
0O
0K
1Q
1C
0=
11
02
03
0$
0#
1"
#230000
0!
0/
05
06
#235000
1!
1/
15
16
0<
0>
0B
1D
0G
1O
1S
1M
1K
1=
1?
0C
0I
13
1$
#240000
0!
0/
05
06
#245000
1!
1/
15
16
1>
1@
1B
0D
0J
0S
0M
0?
1C
01
03
0$
0"
#250000
0!
0/
05
06
#255000
1!
1/
15
16
0@
1A
1D
0R
17
0C
1E
13
1$
#260000
0!
0/
05
06
#265000
1!
1/
15
16
19
0A
0D
1F
1R
0P
1:
07
1C
12
03
0$
1#
#270000
0!
0/
05
06
#275000
1!
1/
15
16
09
1;
1D
1H
0L
0Q
1P
0:
0E
0C
1I
13
1$
#280000
0!
0/
05
06
#285000
1!
1/
15
16
0;
1<
0D
0F
1G
0H
1J
1L
0O
0K
1Q
1C
0=
11
02
03
0$
0#
1"
#290000
0!
0/
05
06
#295000
1!
1/
15
16
0<
0>
0B
1D
0G
1O
1S
1M
1K
1=
1?
0C
0I
13
1$
#300000
0!
0/
05
06
#305000
1!
1/
15
16
1>
1@
1B
0D
0J
0S
0M
0?
1C
01
03
0$
0"
#310000
0!
0/
05
06
#315000
1!
1/
15
16
0@
1A
1D
0R
17
0C
1E
13
1$
#320000
0!
0/
05
06
#325000
1!
1/
15
16
19
0A
0D
1F
1R
0P
1:
07
1C
12
03
0$
1#
#330000
0!
0/
05
06
#335000
1!
1/
15
16
09
1;
1D
1H
0L
0Q
1P
0:
0E
0C
1I
13
1$
#340000
0!
0/
05
06
#345000
1!
1/
15
16
0;
1<
0D
0F
1G
0H
1J
1L
0O
0K
1Q
1C
0=
11
02
03
0$
0#
1"
#350000
0!
0/
05
06
#355000
1!
1/
15
16
0<
0>
0B
1D
0G
1O
1S
1M
1K
1=
1?
0C
0I
13
1$
#360000
0!
0/
05
06
#365000
1!
1/
15
16
1>
1@
1B
0D
0J
0S
0M
0?
1C
01
03
0$
0"
#370000
0!
0/
05
06
#375000
1!
1/
15
16
0@
1A
1D
0R
17
0C
1E
13
1$
#380000
0!
0/
05
06
#385000
1!
1/
15
16
19
0A
0D
1F
1R
0P
1:
07
1C
12
03
0$
1#
#390000
0!
0/
05
06
#395000
1!
1/
15
16
09
1;
1D
1H
0L
0Q
1P
0:
0E
0C
1I
13
1$
#400000
0!
0/
05
06
#405000
1!
1/
15
16
0;
1<
0D
0F
1G
0H
1J
1L
0O
0K
1Q
1C
0=
11
02
03
0$
0#
1"
#410000
0!
0/
05
06
#415000
1!
1/
15
16
0<
0>
0B
1D
0G
1O
1S
1M
1K
1=
1?
0C
0I
13
1$
#420000
0!
0/
05
06
#425000
1!
1/
15
16
1>
1@
1B
0D
0J
0S
0M
0?
1C
01
03
0$
0"
#430000
0!
0/
05
06
#435000
1!
1/
15
16
0@
1A
1D
0R
17
0C
1E
13
1$
#440000
0!
0/
05
06
#445000
1!
1/
15
16
19
0A
0D
1F
1R
0P
1:
07
1C
12
03
0$
1#
#450000
0!
0/
05
06
#455000
1!
1/
15
16
09
1;
1D
1H
0L
0Q
1P
0:
0E
0C
1I
13
1$
#460000
0!
0/
05
06
#465000
1!
1/
15
16
0;
1<
0D
0F
1G
0H
1J
1L
0O
0K
1Q
1C
0=
11
02
03
0$
0#
1"
#470000
0!
0/
05
06
#475000
1!
1/
15
16
0<
0>
0B
1D
0G
1O
1S
1M
1K
1=
1?
0C
0I
13
1$
#480000
0!
0/
05
06
#485000
1!
1/
15
16
1>
1@
1B
0D
0J
0S
0M
0?
1C
01
03
0$
0"
#490000
0!
0/
05
06
#495000
1!
1/
15
16
0@
1A
1D
0R
17
0C
1E
13
1$
#500000
0!
0/
05
06
#505000
1!
1/
15
16
19
0A
0D
1F
1R
0P
1:
07
1C
12
03
0$
1#
#510000
0!
0/
05
06
#515000
1!
1/
15
16
09
1;
1D
1H
0L
0Q
1P
0:
0E
0C
1I
13
1$
#520000
0!
0/
05
06
#525000
1!
1/
15
16
0;
1<
0D
0F
1G
0H
1J
1L
0O
0K
1Q
1C
0=
11
02
03
0$
0#
1"
#530000
0!
0/
05
06
#535000
1!
1/
15
16
0<
0>
0B
1D
0G
1O
1S
1M
1K
1=
1?
0C
0I
13
1$
#540000
0!
0/
05
06
#545000
1!
1/
15
16
1>
1@
1B
0D
0J
0S
0M
0?
1C
01
03
0$
0"
#550000
0!
0/
05
06
#555000
1!
1/
15
16
0@
1A
1D
0R
17
0C
1E
13
1$
#560000
0!
0/
05
06
#565000
1!
1/
15
16
19
0A
0D
1F
1R
0P
1:
07
1C
12
03
0$
1#
#570000
0!
0/
05
06
#575000
1!
1/
15
16
09
1;
1D
1H
0L
0Q
1P
0:
0E
0C
1I
13
1$
#580000
0!
0/
05
06
#585000
1!
1/
15
16
0;
1<
0D
0F
1G
0H
1J
1L
0O
0K
1Q
1C
0=
11
02
03
0$
0#
1"
#590000
0!
0/
05
06
#595000
1!
1/
15
16
0<
0>
0B
1D
0G
1O
1S
1M
1K
1=
1?
0C
0I
13
1$
#600000
0!
0/
05
06
#605000
1!
1/
15
16
1>
1@
1B
0D
0J
0S
0M
0?
1C
01
03
0$
0"
#610000
0!
0/
05
06
#615000
1!
1/
15
16
0@
1A
1D
0R
17
0C
1E
13
1$
#620000
0!
0/
05
06
#625000
1!
1/
15
16
19
0A
0D
1F
1R
0P
1:
07
1C
12
03
0$
1#
#630000
0!
0/
05
06
#635000
1!
1/
15
16
09
1;
1D
1H
0L
0Q
1P
0:
0E
0C
1I
13
1$
#640000
0!
0/
05
06
#645000
1!
1/
15
16
0;
1<
0D
0F
1G
0H
1J
1L
0O
0K
1Q
1C
0=
11
02
03
0$
0#
1"
#650000
0!
0/
05
06
#655000
1!
1/
15
16
0<
0>
0B
1D
0G
1O
1S
1M
1K
1=
1?
0C
0I
13
1$
#660000
0!
0/
05
06
#665000
1!
1/
15
16
1>
1@
1B
0D
0J
0S
0M
0?
1C
01
03
0$
0"
#670000
0!
0/
05
06
#675000
1!
1/
15
16
0@
1A
1D
0R
17
0C
1E
13
1$
#680000
0!
0/
05
06
#685000
1!
1/
15
16
19
0A
0D
1F
1R
0P
1:
07
1C
12
03
0$
1#
#690000
0!
0/
05
06
#695000
1!
1/
15
16
09
1;
1D
1H
0L
0Q
1P
0:
0E
0C
1I
13
1$
#700000
0!
0/
05
06
#705000
1!
1/
15
16
0;
1<
0D
0F
1G
0H
1J
1L
0O
0K
1Q
1C
0=
11
02
03
0$
0#
1"
#710000
0!
0/
05
06
#715000
1!
1/
15
16
0<
0>
0B
1D
0G
1O
1S
1M
1K
1=
1?
0C
0I
13
1$
#720000
0!
0/
05
06
#725000
1!
1/
15
16
1>
1@
1B
0D
0J
0S
0M
0?
1C
01
03
0$
0"
#730000
0!
0/
05
06
#735000
1!
1/
15
16
0@
1A
1D
0R
17
0C
1E
13
1$
#740000
0!
0/
05
06
#745000
1!
1/
15
16
19
0A
0D
1F
1R
0P
1:
07
1C
12
03
0$
1#
#750000
0!
0/
05
06
#755000
1!
1/
15
16
09
1;
1D
1H
0L
0Q
1P
0:
0E
0C
1I
13
1$
#760000
0!
0/
05
06
#765000
1!
1/
15
16
0;
1<
0D
0F
1G
0H
1J
1L
0O
0K
1Q
1C
0=
11
02
03
0$
0#
1"
#770000
0!
0/
05
06
#775000
1!
1/
15
16
0<
0>
0B
1D
0G
1O
1S
1M
1K
1=
1?
0C
0I
13
1$
#780000
0!
0/
05
06
#785000
1!
1/
15
16
1>
1@
1B
0D
0J
0S
0M
0?
1C
01
03
0$
0"
#790000
0!
0/
05
06
#795000
1!
1/
15
16
0@
1A
1D
0R
17
0C
1E
13
1$
#800000
0!
0/
05
06
#805000
1!
1/
15
16
19
0A
0D
1F
1R
0P
1:
07
1C
12
03
0$
1#
#810000
0!
0/
05
06
#815000
1!
1/
15
16
09
1;
1D
1H
0L
0Q
1P
0:
0E
0C
1I
13
1$
#820000
0!
0/
05
06
#825000
1!
1/
15
16
0;
1<
0D
0F
1G
0H
1J
1L
0O
0K
1Q
1C
0=
11
02
03
0$
0#
1"
#830000
0!
0/
05
06
#835000
1!
1/
15
16
0<
0>
0B
1D
0G
1O
1S
1M
1K
1=
1?
0C
0I
13
1$
#840000
0!
0/
05
06
#845000
1!
1/
15
16
1>
1@
1B
0D
0J
0S
0M
0?
1C
01
03
0$
0"
#850000
0!
0/
05
06
#855000
1!
1/
15
16
0@
1A
1D
0R
17
0C
1E
13
1$
#860000
0!
0/
05
06
#865000
1!
1/
15
16
19
0A
0D
1F
1R
0P
1:
07
1C
12
03
0$
1#
#870000
0!
0/
05
06
#875000
1!
1/
15
16
09
1;
1D
1H
0L
0Q
1P
0:
0E
0C
1I
13
1$
#880000
0!
0/
05
06
#885000
1!
1/
15
16
0;
1<
0D
0F
1G
0H
1J
1L
0O
0K
1Q
1C
0=
11
02
03
0$
0#
1"
#890000
0!
0/
05
06
#895000
1!
1/
15
16
0<
0>
0B
1D
0G
1O
1S
1M
1K
1=
1?
0C
0I
13
1$
#900000
0!
0/
05
06
#905000
1!
1/
15
16
1>
1@
1B
0D
0J
0S
0M
0?
1C
01
03
0$
0"
#910000
0!
0/
05
06
#915000
1!
1/
15
16
0@
1A
1D
0R
17
0C
1E
13
1$
#920000
0!
0/
05
06
#925000
1!
1/
15
16
19
0A
0D
1F
1R
0P
1:
07
1C
12
03
0$
1#
#930000
0!
0/
05
06
#935000
1!
1/
15
16
09
1;
1D
1H
0L
0Q
1P
0:
0E
0C
1I
13
1$
#940000
0!
0/
05
06
#945000
1!
1/
15
16
0;
1<
0D
0F
1G
0H
1J
1L
0O
0K
1Q
1C
0=
11
02
03
0$
0#
1"
#950000
0!
0/
05
06
#955000
1!
1/
15
16
0<
0>
0B
1D
0G
1O
1S
1M
1K
1=
1?
0C
0I
13
1$
#960000
0!
0/
05
06
#965000
1!
1/
15
16
1>
1@
1B
0D
0J
0S
0M
0?
1C
01
03
0$
0"
#970000
0!
0/
05
06
#975000
1!
1/
15
16
0@
1A
1D
0R
17
0C
1E
13
1$
#980000
0!
0/
05
06
#985000
1!
1/
15
16
19
0A
0D
1F
1R
0P
1:
07
1C
12
03
0$
1#
#990000
0!
0/
05
06
#995000
1!
1/
15
16
09
1;
1D
1H
0L
0Q
1P
0:
0E
0C
1I
13
1$
