and_gate/simulation/qsim/and_gate.msim.vcd
$comment
	File created using the following command:
		vcd file and_gate.msim.vcd -direction
$end
$date
	Sun Mar 27 12:27:03 2022
$end
$version
	ModelSim Version 2020.1
$end
$timescale
	1ps
$end

$scope module and_gate_vhd_vec_tst $end
$var wire 1 ! a $end
$var wire 1 " b $end
$var wire 1 # z $end

$scope module i1 $end
$var wire 1 $ gnd $end
$var wire 1 % vcc $end
$var wire 1 & unknown $end
$var wire 1 ' devoe $end
$var wire 1 ( devclrn $end
$var wire 1 ) devpor $end
$var wire 1 * ww_devoe $end
$var wire 1 + ww_devclrn $end
$var wire 1 , ww_devpor $end
$var wire 1 - ww_a $end
$var wire 1 . ww_b $end
$var wire 1 / ww_z $end
$var wire 1 0 \z~output_o\ $end
$var wire 1 1 \a~input_o\ $end
$var wire 1 2 \b~input_o\ $end
$var wire 1 3 \z~0_combout\ $end
$var wire 1 4 \ALT_INV_b~input_o\ $end
$var wire 1 5 \ALT_INV_a~input_o\ $end
$upscope $end
$upscope $end
$enddefinitions $end
#0
$dumpvars
0!
0"
0#
0$
1%
x&
1'
1(
1)
1*
1+
1,
0-
0.
0/
00
01
02
03
14
15
$end
#5000
1!
1-
11
05
#10000
0!
0-
01
15
#15000
1!
1-
11
05
#20000
0!
0-
01
15
#25000
1!
1-
11
05
#30000
0!
0-
01
15
#35000
1!
1-
11
05
#40000
0!
0-
01
15
#45000
1!
1-
11
05
#50000
0!
0-
01
15
#55000
1!
1-
11
05
#60000
0!
0-
01
15
#65000
1!
1-
11
05
#70000
0!
1"
0-
1.
12
01
15
04
#75000
1!
1-
11
05
13
10
1/
1#
#80000
0!
0-
01
15
03
00
0/
0#
#85000
1!
1-
11
05
13
10
1/
1#
#90000
0!
0-
01
15
03
00
0/
0#
#95000
1!
1-
11
05
13
10
1/
1#
#100000
0!
0-
01
15
03
00
0/
0#
#105000
1!
1-
11
05
13
10
1/
1#
#110000
0!
0-
01
15
03
00
0/
0#
#115000
1!
1-
11
05
13
10
1/
1#
#120000
0!
0-
01
15
03
00
0/
0#
#125000
1!
1-
11
05
13
10
1/
1#
#130000
0!
0-
01
15
03
00
0/
0#
#135000
1!
1-
11
05
13
10
1/
1#
#140000
0!
0"
0-
0.
02
01
15
14
03
00
0/
0#
#145000
1!
1-
11
05
#150000
0!
0-
01
15
#155000
1!
1-
11
05
#160000
0!
0-
01
15
#165000
1!
1-
11
05
#170000
0!
0-
01
15
#175000
1!
1-
11
05
#180000
0!
0-
01
15
#185000
1!
1-
11
05
#190000
0!
0-
01
15
#195000
1!
1-
11
05
#200000
0!
0-
01
15
#205000
1!
1-
11
05
#210000
0!
0-
01
15
#215000
1!
1-
11
05
#220000
0!
1"
0-
1.
12
01
15
04
#225000
1!
1-
11
05
13
10
1/
1#
#230000
0!
0-
01
15
03
00
0/
0#
#235000
1!
1-
11
05
13
10
1/
1#
#240000
0!
0-
01
15
03
00
0/
0#
#245000
1!
1-
11
05
13
10
1/
1#
#250000
0!
0-
01
15
03
00
0/
0#
#255000
1!
1-
11
05
13
10
1/
1#
#260000
0!
0"
0-
0.
02
01
15
14
03
00
0/
0#
#265000
1!
1-
11
05
#270000
0!
0-
01
15
#275000
1!
1-
11
05
#280000
0!
0-
01
15
#285000
1!
1-
11
05
#290000
0!
0-
01
15
#295000
1!
1-
11
05
#300000
0!
0-
01
15
#305000
1!
1-
11
05
#310000
0!
0-
01
15
#315000
1!
1-
11
05
#320000
0!
1"
0-
1.
12
01
15
04
#325000
1!
1-
11
05
13
10
1/
1#
#330000
0!
0-
01
15
03
00
0/
0#
#335000
1!
1-
11
05
13
10
1/
1#
#340000
0!
0-
01
15
03
00
0/
0#
#345000
1!
1-
11
05
13
10
1/
1#
#350000
0!
0-
01
15
03
00
0/
0#
#355000
1!
1-
11
05
13
10
1/
1#
#360000
0!
0-
01
15
03
00
0/
0#
#365000
1!
1-
11
05
13
10
1/
1#
#370000
0!
0-
01
15
03
00
0/
0#
#375000
1!
1-
11
05
13
10
1/
1#
#380000
0!
0-
01
15
03
00
0/
0#
#385000
1!
1-
11
05
13
10
1/
1#
#390000
0!
0-
01
15
03
00
0/
0#
#395000
1!
1-
11
05
13
10
1/
1#
#400000
0!
0-
01
15
03
00
0/
0#
#405000
1!
1-
11
05
13
10
1/
1#
#410000
0!
0-
01
15
03
00
0/
0#
#415000
1!
1-
11
05
13
10
1/
1#
#420000
0!
0-
01
15
03
00
0/
0#
#425000
1!
1-
11
05
13
10
1/
1#
#430000
0!
0-
01
15
03
00
0/
0#
#435000
1!
1-
11
05
13
10
1/
1#
#440000
0!
0-
01
15
03
00
0/
0#
#445000
1!
1-
11
05
13
10
1/
1#
#450000
0!
0-
01
15
03
00
0/
0#
#455000
1!
1-
11
05
13
10
1/
1#
#460000
0!
0-
01
15
03
00
0/
0#
#465000
1!
1-
11
05
13
10
1/
1#
#470000
0!
0-
01
15
03
00
0/
0#
#475000
1!
1-
11
05
13
10
1/
1#
#480000
0!
0-
01
15
03
00
0/
0#
#485000
1!
1-
11
05
13
10
1/
1#
#490000
0!
0-
01
15
03
00
0/
0#
#495000
1!
1-
11
05
13
10
1/
1#
#500000
0!
0-
01
15
03
00
0/
0#
#505000
1!
1-
11
05
13
10
1/
1#
#510000
0!
0-
01
15
03
00
0/
0#
#515000
1!
1-
11
05
13
10
1/
1#
#520000
0!
0-
01
15
03
00
0/
0#
#525000
1!
1-
11
05
13
10
1/
1#
#530000
0!
0-
01
15
03
00
0/
0#
#535000
1!
1-
11
05
13
10
1/
1#
#540000
0!
0-
01
15
03
00
0/
0#
#545000
1!
1-
11
05
13
10
1/
1#
#550000
0!
0-
01
15
03
00
0/
0#
#555000
1!
1-
11
05
13
10
1/
1#
#560000
0!
0-
01
15
03
00
0/
0#
#565000
1!
1-
11
05
13
10
1/
1#
#570000
0!
0-
01
15
03
00
0/
0#
#575000
1!
1-
11
05
13
10
1/
1#
#580000
0!
0"
0-
0.
02
01
15
14
03
00
0/
0#
#585000
1!
1-
11
05
#590000
0!
0-
01
15
#595000
1!
1-
11
05
#600000
0!
0-
01
15
#605000
1!
1-
11
05
#610000
0!
0-
01
15
#615000
1!
1-
11
05
#620000
0!
0-
01
15
#625000
1!
1-
11
05
#630000
0!
0-
01
15
#635000
1!
1-
11
05
#640000
0!
0-
01
15
#645000
1!
1-
11
05
#650000
0!
0-
01
15
#655000
1!
1-
11
05
#660000
0!
0-
01
15
#665000
1!
1-
11
05
#670000
0!
0-
01
15
#675000
1!
1-
11
05
#680000
0!
0-
01
15
#685000
1!
1-
11
05
#690000
0!
0-
01
15
#695000
1!
1-
11
05
#700000
0!
0-
01
15
#705000
1!
1-
11
05
#710000
0!
0-
01
15
#715000
1!
1-
11
05
#720000
0!
0-
01
15
#725000
1!
1-
11
05
#730000
0!
0-
01
15
#735000
1!
1-
11
05
#740000
0!
0-
01
15
#745000
1!
1-
11
05
#750000
0!
0-
01
15
#755000
1!
1-
11
05
#760000
0!
0-
01
15
#765000
1!
1-
11
05
#770000
0!
0-
01
15
#775000
1!
1-
11
05
#780000
0!
0-
01
15
#785000
1!
1-
11
05
#790000
0!
0-
01
15
#795000
1!
1-
11
05
#800000
0!
0-
01
15
#805000
1!
1-
11
05
#810000
0!
0-
01
15
#815000
1!
1-
11
05
#820000
0!
0-
01
15
#825000
1!
1-
11
05
#830000
0!
0-
01
15
#835000
1!
1-
11
05
#840000
0!
0-
01
15
#845000
1!
1-
11
05
#850000
0!
0-
01
15
#855000
1!
1-
11
05
#860000
0!
0-
01
15
#865000
1!
1-
11
05
#870000
0!
0-
01
15
#875000
1!
1-
11
05
#880000
0!
0-
01
15
#885000
1!
1-
11
05
#890000
0!
0-
01
15
#895000
1!
1-
11
05
#900000
0!
0-
01
15
#905000
1!
1-
11
05
#910000
0!
0-
01
15
#915000
1!
1-
11
05
#920000
0!
0-
01
15
#925000
1!
1-
11
05
#930000
0!
0-
01
15
#935000
1!
1-
11
05
#940000
0!
0-
01
15
#945000
1!
1-
11
05
#950000
0!
0-
01
15
#955000
1!
1-
11
05
#960000
0!
0-
01
15
#965000
1!
1-
11
05
#970000
0!
0-
01
15
#975000
1!
1-
11
05
#980000
0!
0-
01
15
#985000
1!
1-
11
05
#990000
0!
0-
01
15
#995000
1!
1-
11
05
