contador_2_digitos/simulation/qsim/contador_2_digitos.msim.vcd
$comment
	File created using the following command:
		vcd file contador_2_digitos.msim.vcd -direction
$end
$date
	Mon Apr 18 14:32:13 2022
$end
$version
	ModelSim Version 2020.1
$end
$timescale
	1ps
$end

$scope module contador_2_digitos_vlg_vec_tst $end
$var reg 1 ! clk $end
$var reg 1 " reset $end
$var wire 1 # count [6] $end
$var wire 1 $ count [5] $end
$var wire 1 % count [4] $end
$var wire 1 & count [3] $end
$var wire 1 ' count [2] $end
$var wire 1 ( count [1] $end
$var wire 1 ) count [0] $end
$var wire 1 * digitD [0] $end
$var wire 1 + digitD [1] $end
$var wire 1 , digitD [2] $end
$var wire 1 - digitD [3] $end
$var wire 1 . digitD [4] $end
$var wire 1 / digitD [5] $end
$var wire 1 0 digitD [6] $end
$var wire 1 1 digitD [7] $end
$var wire 1 2 digitU [0] $end
$var wire 1 3 digitU [1] $end
$var wire 1 4 digitU [2] $end
$var wire 1 5 digitU [3] $end
$var wire 1 6 digitU [4] $end
$var wire 1 7 digitU [5] $end
$var wire 1 8 digitU [6] $end
$var wire 1 9 digitU [7] $end

$scope module i1 $end
$var wire 1 : gnd $end
$var wire 1 ; vcc $end
$var wire 1 < unknown $end
$var tri1 1 = devclrn $end
$var tri1 1 > devpor $end
$var tri1 1 ? devoe $end
$var wire 1 @ ~QUARTUS_CREATED_GND~I_combout $end
$var wire 1 A clk~input_o $end
$var wire 1 B clk~inputCLKENA0_outclk $end
$var wire 1 C count_process:digit_2[0]~0_combout $end
$var wire 1 D reset~input_o $end
$var wire 1 E count_process:digit_2[0]~q $end
$var wire 1 F count_process:temp[0]~0_combout $end
$var wire 1 G count_process:temp[0]~q $end
$var wire 1 H count_process:digit_2[1]~q $end
$var wire 1 I count_process:digit_2[0]~DUPLICATE_q $end
$var wire 1 J digit_2~0_combout $end
$var wire 1 K count_process:digit_2[1]~DUPLICATE_q $end
$var wire 1 L count_process:digit_2[3]~DUPLICATE_q $end
$var wire 1 M Add1~2_combout $end
$var wire 1 N digit_2~1_combout $end
$var wire 1 O count_process:digit_2[3]~q $end
$var wire 1 P digit_1~0_combout $end
$var wire 1 Q count_process:digit_1[0]~q $end
$var wire 1 R digit_1~1_combout $end
$var wire 1 S count_process:digit_1[1]~q $end
$var wire 1 T Add0~0_combout $end
$var wire 1 U digit_1~2_combout $end
$var wire 1 V count_process:digit_1[2]~q $end
$var wire 1 W count_process:digit_1[0]~DUPLICATE_q $end
$var wire 1 X Add0~1_combout $end
$var wire 1 Y digit_1~3_combout $end
$var wire 1 Z count_process:digit_1[3]~q $end
$var wire 1 [ Add2~24_combout $end
$var wire 1 \ Add1~0_combout $end
$var wire 1 ] Add2~2 $end
$var wire 1 ^ Add2~22 $end
$var wire 1 _ Add2~6 $end
$var wire 1 ` Add2~10 $end
$var wire 1 a Add2~13_sumout $end
$var wire 1 b Add2~14 $end
$var wire 1 c Add2~17_sumout $end
$var wire 1 d Add2~5_sumout $end
$var wire 1 e Add2~21_sumout $end
$var wire 1 f Equal1~0_combout $end
$var wire 1 g Add2~9_sumout $end
$var wire 1 h Equal1~1_combout $end
$var wire 1 i count_process:digit_2[2]~q $end
$var wire 1 j Add1~1_combout $end
$var wire 1 k count_process:digit_2[2]~DUPLICATE_q $end
$var wire 1 l Equal0~0_combout $end
$var wire 1 m Add2~1_sumout $end
$var wire 1 n count_process:temp[1]~q $end
$var wire 1 o count_process:temp[2]~q $end
$var wire 1 p count_process:temp[3]~q $end
$var wire 1 q count_process:temp[4]~q $end
$var wire 1 r count_process:temp[5]~q $end
$var wire 1 s count_process:temp[6]~q $end
$var wire 1 t Mux13~0_combout $end
$var wire 1 u Mux12~0_combout $end
$var wire 1 v Mux11~0_combout $end
$var wire 1 w Mux10~0_combout $end
$var wire 1 x Mux9~0_combout $end
$var wire 1 y Mux8~0_combout $end
$var wire 1 z Mux7~0_combout $end
$var wire 1 { Mux6~0_combout $end
$var wire 1 | Mux5~0_combout $end
$var wire 1 } Mux4~0_combout $end
$var wire 1 ~ Mux3~0_combout $end
$var wire 1 !! Mux2~0_combout $end
$var wire 1 "! Mux1~0_combout $end
$var wire 1 #! Mux0~0_combout $end
$upscope $end
$upscope $end
$enddefinitions $end
#0
$dumpvars
0!
0"
0)
0(
0'
0&
0%
0$
0#
01
10
1/
1.
1-
1,
1+
0*
09
18
17
16
15
14
13
02
0:
1;
x<
1=
1>
1?
0@
0A
0B
1C
0D
0E
1F
0G
0H
0I
0J
0K
0L
0M
0N
0O
0P
0Q
0R
0S
0T
0U
0V
0W
0X
0Y
0Z
0[
0\
0]
0^
0_
0`
0a
0b
0c
0d
0e
0f
0g
0h
0i
0j
0k
0l
0m
0n
0o
0p
0q
0r
0s
0t
0u
0v
0w
0x
0y
0z
0{
0|
0}
0~
0!!
0"!
0#!
$end
#2500
1!
1A
1B
#5000
0!
0A
0B
1E
1I
1G
1)
1z
1w
1v
1u
1m
1J
0F
0C
08
07
06
03
#7500
1!
1A
1B
#10000
0!
0A
0B
0E
1H
0I
1K
0G
1n
1(
0)
0z
1x
0w
0v
1t
1F
1C
19
17
16
05
13
#12500
1!
1A
1B
#15000
0!
0A
0B
1E
1I
1G
1)
0x
1v
1\
0m
0J
0F
0C
07
15
1j
1e
1f
#17500
1!
1A
1B
#20000
0!
0A
0B
0E
0H
0I
0K
1i
1k
0G
0n
1o
1'
0(
0)
1z
1w
0u
0\
0f
0e
0j
1F
1C
18
06
03
1j
1e
#22500
1!
1A
1B
#25000
0!
0A
0B
1E
1I
1G
1)
1f
0z
1y
0w
1m
1J
0F
0C
16
04
13
0f
#27500
1!
1A
1B
#30000
0!
0A
0B
0E
1H
0I
1K
0G
1n
1(
0)
0v
1F
1C
17
#32500
1!
1A
1B
#35000
0!
0A
0B
1E
1I
1G
1)
0y
1w
1v
1u
1\
1M
0m
0J
0t
0F
0C
09
08
07
06
14
1f
1d
1N
0j
0e
0f
#37500
1!
1A
1B
#40000
0!
0A
0B
0E
0H
0I
0K
1L
1O
0i
0k
0G
0n
0o
1p
1&
0'
0(
0)
0w
0v
0u
0\
1t
1e
1j
1F
1C
19
18
17
16
0j
0e
#42500
1!
1A
1B
#45000
0!
0A
0B
1E
1I
1G
1)
1v
1l
1m
1J
0F
0C
07
1P
0N
0J
#47500
1!
1A
1B
#50000
0!
0A
0B
0E
0I
0L
0O
1Q
1W
0G
1n
1(
0)
1#!
1~
1}
1|
0l
0v
0M
0d
1e
0P
0t
1J
1F
1C
09
17
00
0/
0.
0+
1d
0e
1P
0J
#52500
1!
1A
1B
#55000
0!
0A
0B
1E
1I
1G
1)
1]
1z
1w
1v
1u
0m
1J
0F
0C
08
07
06
03
1e
1f
#57500
1!
1A
1B
#60000
0!
0A
0B
0E
1H
0I
1K
0G
0n
1o
1'
0(
0)
0z
1x
0w
0v
0f
1t
1F
1C
19
17
16
05
13
#62500
1!
1A
1B
#65000
0!
0A
0B
1E
1I
1G
1)
1f
0]
0x
1v
1\
1m
0J
0F
0C
07
15
0f
1j
#67500
1!
1A
1B
#70000
0!
0A
0B
0E
0H
0I
0K
1i
1k
0G
1n
1(
0)
1z
1w
0u
0\
0e
0j
1F
1C
18
06
03
1j
1e
#72500
1!
1A
1B
#75000
0!
0A
0B
1E
1I
1G
1)
1]
0z
1y
0w
0m
1J
0F
0C
16
04
13
1^
1f
0e
1_
0f
0d
1g
#77500
1!
1A
1B
#80000
0!
0A
0B
0E
1H
0I
1K
0G
0n
0o
0p
1q
1%
0&
0'
0(
0)
0v
1F
1C
17
#82500
1!
1A
1B
#85000
0!
0A
0B
1E
1I
1G
1)
0]
0y
1w
1v
1u
1\
1M
1m
0J
0t
0F
0C
09
08
07
06
14
0^
1d
1N
0j
0d
#87500
1!
1A
1B
#90000
0!
0A
0B
0E
0H
0I
0K
1L
1O
0i
0k
0G
1n
1(
0)
0w
0v
0u
0\
1t
1e
1j
1F
1C
19
18
17
16
0j
0e
#92500
1!
1A
1B
#95000
0!
0A
0B
1E
1I
1G
1)
1]
1v
1l
1R
0m
1J
0F
0C
07
1^
1`
0_
0]
0g
0P
0N
0J
0`
0^
1d
1a
1g
1e
1f
0a
0d
#97500
1!
1A
1B
#100000
0!
0A
0B
0E
0I
0L
0O
0Q
1S
0W
0G
0n
1o
1'
0(
0)
0#!
1!!
0~
0}
1]
0l
0v
0M
0f
1{
1d
1P
0t
1J
1F
1C
09
11
17
1/
1.
0-
1+
1^
0]
0e
0d
0P
0J
0^
1d
1e
0d
#102500
1!
1A
1B
#105000
0!
0A
0B
1E
1I
1G
1)
1f
1z
1w
1v
1u
1m
1J
0F
0C
08
07
06
03
0f
#107500
1!
1A
1B
#110000
0!
0A
0B
0E
1H
0I
1K
0G
1n
1(
0)
0z
1x
0w
0v
1t
1F
1C
19
17
16
05
13
#112500
1!
1A
1B
#115000
0!
0A
0B
1E
1I
1G
1)
0x
1v
1\
0m
0J
0F
0C
07
15
1^
1f
1j
0e
0f
1d
#117500
1!
1A
1B
#120000
0!
0A
0B
0E
0H
0I
0K
1i
1k
0G
0n
0o
1p
1&
0'
0(
0)
1z
1w
0u
0^
0\
1e
0j
1F
1C
18
06
03
1^
0d
1j
0e
1d
#122500
1!
1A
1B
#125000
0!
0A
0B
1E
1I
1G
1)
0z
1y
0w
1m
1J
0F
0C
16
04
13
#127500
1!
1A
1B
#130000
0!
0A
0B
0E
1H
0I
1K
0G
1n
1(
0)
0v
1F
1C
17
#132500
1!
1A
1B
#135000
0!
0A
0B
1E
1I
1G
1)
0y
1w
1v
1u
1\
1M
0m
0J
0t
0F
0C
09
08
07
06
14
1_
0^
0d
1N
0j
1e
1`
0_
1f
0g
1d
0`
1a
1g
0a
#137500
1!
1A
1B
#140000
0!
0A
0B
0E
0H
0I
0K
1L
1O
0i
0k
0G
0n
1o
1'
0(
0)
0w
0v
0u
1^
0\
0f
1t
0e
1j
1F
1C
19
18
17
16
1_
0^
0d
0j
1e
1`
0_
0g
1d
0`
1a
1g
0a
#142500
1!
1A
1B
#145000
0!
0A
0B
1E
1I
1G
1)
1f
1v
1l
1m
1J
0F
0C
07
0f
1P
0N
0J
#147500
1!
1A
1B
#150000
0!
0A
0B
0E
0I
0L
0O
1Q
1W
0G
1n
1(
0)
0!!
1}
1T
0l
0v
0M
1a
0d
0e
0P
0t
1J
1F
1C
09
17
0/
1-
1d
0a
1e
1P
0J
#152500
1!
1A
1B
#155000
0!
0A
0B
1E
1I
1G
1)
1]
1z
1w
1v
1u
0m
1J
0F
0C
08
07
06
03
1^
1f
0e
1_
0f
0d
1`
0g
1a
#157500
1!
1A
1B
#160000
0!
0A
0B
0E
1H
0I
1K
0G
0n
0o
0p
0q
1r
1$
0%
0&
0'
0(
0)
0z
1x
0w
0v
1t
1F
1C
19
17
16
05
13
#162500
1!
1A
1B
#165000
0!
0A
0B
1E
1I
1G
1)
0]
0x
1v
1\
1m
0J
0F
0C
07
15
1j
#167500
1!
1A
1B
#170000
0!
0A
0B
0E
0H
0I
0K
1i
1k
0G
1n
1(
0)
1z
1w
0u
0^
0\
1e
0j
1F
1C
18
06
03
0_
1^
1d
1j
0e
0`
1_
1g
0d
1`
0a
0g
1a
#172500
1!
1A
1B
#175000
0!
0A
0B
1E
1I
1G
1)
1]
0z
1y
0w
0m
1J
0F
0C
16
04
13
1e
1f
#177500
1!
1A
1B
#180000
0!
0A
0B
0E
1H
0I
1K
0G
0n
1o
1'
0(
0)
0v
0f
1F
1C
17
#182500
1!
1A
1B
#185000
0!
0A
0B
1E
1I
1G
1)
1f
0]
0y
1w
1v
1u
1\
1M
1m
0J
0t
0F
0C
09
08
07
06
14
0^
0f
1d
1N
0j
0d
#187500
1!
1A
1B
#190000
0!
0A
0B
0E
0H
0I
0K
1L
1O
0i
0k
0G
1n
1(
0)
0w
0v
0u
1^
0\
1t
0e
1j
1F
1C
19
18
17
16
0^
1d
0j
1e
0d
#192500
1!
1A
1B
#195000
0!
0A
0B
1E
1I
1G
1)
1]
1v
1l
0R
0m
1J
1U
0F
0C
07
0`
1b
0_
0]
1f
1g
0a
1d
0P
0N
0J
0b
1a
1c
0g
0e
0f
0c
#197500
1!
1A
1B
#200000
0!
0A
0B
0E
0I
0L
0O
0Q
0S
1V
0W
0G
0n
0o
1p
1&
0'
0(
0)
1#!
1~
0|
0T
1]
0l
0v
0M
1c
1P
0t
1J
1F
1C
09
17
10
0.
0+
0]
1e
0c
0P
0J
0e
#202500
1!
1A
1B
#205000
0!
0A
0B
1E
1I
1G
1)
1z
1w
1v
1u
1m
1J
0F
0C
08
07
06
03
#207500
1!
1A
1B
#210000
0!
0A
0B
0E
1H
0I
1K
0G
1n
1(
0)
0z
1x
0w
0v
1t
1F
1C
19
17
16
05
13
#212500
1!
1A
1B
#215000
0!
0A
0B
1E
1I
1G
1)
0x
1v
1\
0m
0J
0F
0C
07
15
1j
1e
1f
#217500
1!
1A
1B
#220000
0!
0A
0B
0E
0H
0I
0K
1i
1k
0G
0n
1o
1'
0(
0)
1z
1w
0u
0\
0f
0e
0j
1F
1C
18
06
03
1j
1e
#222500
1!
1A
1B
#225000
0!
0A
0B
1E
1I
1G
1)
1f
0z
1y
0w
1m
1J
0F
0C
16
04
13
0f
#227500
1!
1A
1B
#230000
0!
0A
0B
0E
1H
0I
1K
0G
1n
1(
0)
0v
1F
1C
17
#232500
1!
1A
1B
#235000
0!
0A
0B
1E
1I
1G
1)
0y
1w
1v
1u
1\
1M
0m
0J
0t
0F
0C
09
08
07
06
14
1f
1g
0d
1N
0j
0e
0f
#237500
1!
1A
1B
#240000
0!
0A
0B
0E
0H
0I
0K
1L
1O
0i
0k
0G
0n
0o
0p
1q
1%
0&
0'
0(
0)
0w
0v
0u
0\
1t
1e
1j
1F
1C
19
18
17
16
0j
0e
#242500
1!
1A
1B
#245000
0!
0A
0B
1E
1I
1G
1)
1v
1l
1m
1J
0F
0C
07
1_
0g
1P
0N
0J
1g
#247500
1!
1A
1B
#250000
0!
0A
0B
0E
0I
0L
0O
1Q
1W
0G
1n
1(
0)
0#!
1"!
0~
0_
0l
0v
0M
1d
1e
0P
0t
1J
1F
1C
09
17
1.
0,
1+
1_
0g
0d
0e
1P
0J
1g
#252500
1!
1A
1B
#255000
0!
0A
0B
1E
1I
1G
1)
1]
1z
1w
1v
1u
0m
1J
0F
0C
08
07
06
03
1e
1f
#257500
1!
1A
1B
#260000
0!
0A
0B
0E
1H
0I
1K
0G
0n
1o
1'
0(
0)
0z
1x
0w
0v
0f
1t
1F
1C
19
17
16
05
13
#262500
1!
1A
1B
#265000
0!
0A
0B
1E
1I
1G
1)
1f
0]
0x
1v
1\
1m
0J
0F
0C
07
15
0f
1j
#267500
1!
1A
1B
#270000
0!
0A
0B
0E
0H
0I
0K
1i
1k
0G
1n
1(
0)
1z
1w
0u
0\
0e
0j
1F
1C
18
06
03
1j
1e
#272500
1!
1A
1B
#275000
0!
0A
0B
1E
1I
1G
1)
1]
0z
1y
0w
0m
1J
0F
0C
16
04
13
1^
1f
0e
0f
1d
#277500
1!
1A
1B
#280000
0!
0A
0B
0E
1H
0I
1K
0G
0n
0o
1p
1&
0'
0(
0)
0v
1F
1C
17
#282500
1!
1A
1B
#285000
0!
0A
0B
1E
1I
1G
1)
0]
0y
1w
1v
1u
1\
1M
1m
0J
0t
0F
0C
09
08
07
06
14
0^
1`
0g
0d
1N
0j
0_
1b
1d
0a
0`
1g
1c
0b
1a
0c
#287500
1!
1A
1B
#290000
0!
0A
0B
0E
0H
0I
0K
1L
1O
0i
0k
0G
1n
1(
0)
0w
0v
0u
0\
1t
1e
1j
1F
1C
19
18
17
16
0j
0e
#292500
1!
1A
1B
#295000
0!
0A
0B
1E
1I
1G
1)
1]
1v
1l
1R
0m
1J
0F
0C
07
1^
0]
0P
0N
0J
1_
0^
0d
1e
1`
0_
1f
0g
1d
1b
0`
0a
1g
0b
1c
1a
0c
#297500
1!
1A
1B
#300000
0!
0A
0B
0E
0I
0L
0O
0Q
1S
0W
0G
0n
1o
1'
0(
0)
0}
1_
1]
0l
0v
0M
0f
0d
1P
0t
1J
1F
1C
09
17
1/
1`
1^
0_
0]
0g
0e
1d
0P
0J
1b
1_
0`
0^
0a
0d
1g
1e
1`
0b
0_
1c
0g
1a
1d
1b
0`
0a
0c
1g
0b
1c
1a
0c
#302500
1!
1A
1B
#305000
0!
0A
0B
1E
1I
1G
1)
1f
1z
1w
1v
1u
1m
1J
0F
0C
08
07
06
03
0f
#307500
1!
1A
1B
#310000
0!
0A
0B
0E
1H
0I
1K
0G
1n
1(
0)
0z
1x
0w
0v
1t
1F
1C
19
17
16
05
13
#312500
1!
1A
1B
#315000
0!
0A
0B
1E
1I
1G
1)
0x
1v
1\
0m
0J
0F
0C
07
15
1^
1f
1j
0e
1_
0f
0d
1`
0g
1b
0a
1c
#317500
1!
1A
1B
#320000
0!
0A
0B
0E
0H
0I
0K
1i
1k
0G
0n
0o
0p
0q
0r
1s
1#
0$
0%
0&
0'
0(
0)
1z
1w
0u
0^
0\
1e
0j
1F
1C
18
06
03
0_
1^
1d
1j
0e
0`
1_
1g
0d
0b
1`
1a
0g
1b
0c
0a
1c
#322500
1!
1A
1B
#325000
0!
0A
0B
1E
1I
1G
1)
0z
1y
0w
1m
1J
0F
0C
16
04
13
#327500
1!
1A
1B
#330000
0!
0A
0B
0E
1H
0I
1K
0G
1n
1(
0)
0v
1F
1C
17
#332500
1!
1A
1B
#335000
0!
0A
0B
1E
1I
1G
1)
0y
1w
1v
1u
1\
1M
0m
0J
0t
0F
0C
09
08
07
06
14
0_
0^
1g
1d
1N
0j
1e
1f
0g
0d
#337500
1!
1A
1B
#340000
0!
0A
0B
0E
0H
0I
0K
1L
1O
0i
0k
0G
0n
1o
1'
0(
0)
0w
0v
0u
1^
0\
0f
1t
0e
1j
1F
1C
19
18
17
16
0^
1d
0j
1e
0d
#342500
1!
1A
1B
#345000
0!
0A
0B
1E
1I
1G
1)
1f
1v
1l
1m
1J
0F
0C
07
0`
1_
0f
1g
1P
0N
0J
0b
1`
1a
0g
1b
0c
0a
1c
#347500
1!
1A
1B
#350000
0!
0A
0B
0E
0I
0L
0O
1Q
1W
0G
1n
1(
0)
0"!
1~
1}
1|
0b
1X
0_
1T
0l
0v
0M
0{
1a
1d
0e
0P
0t
1J
1F
1C
09
01
17
00
0/
0.
1,
0`
1_
1b
0c
1g
0d
0a
1e
1P
0J
0b
1`
1a
0g
1c
1b
0c
0a
1c
#352500
1!
1A
1B
#355000
0!
0A
0B
1E
1I
1G
1)
1]
1z
1w
1v
1u
0m
1J
0F
0C
08
07
06
03
1^
1f
0e
0f
1d
#357500
1!
1A
1B
#360000
0!
0A
0B
0E
1H
0I
1K
0G
0n
0o
1p
1&
0'
0(
0)
0z
1x
0w
0v
1t
1F
1C
19
17
16
05
13
#362500
1!
1A
1B
#365000
0!
0A
0B
1E
1I
1G
1)
0]
0x
1v
1\
1m
0J
0F
0C
07
15
1j
#367500
1!
1A
1B
#370000
0!
0A
0B
0E
0H
0I
0K
1i
1k
0G
1n
1(
0)
1z
1w
0u
0^
0\
1e
0j
1F
1C
18
06
03
1^
0d
1j
0e
1d
#372500
1!
1A
1B
#375000
0!
0A
0B
1E
1I
1G
1)
1]
0z
1y
0w
0m
1J
0F
0C
16
04
13
1e
1f
#377500
1!
1A
1B
#380000
0!
0A
0B
0E
1H
0I
1K
0G
0n
1o
1'
0(
0)
0v
0f
1F
1C
17
#382500
1!
1A
1B
#385000
0!
0A
0B
1E
1I
1G
1)
1f
0]
0y
1w
1v
1u
1\
1M
1m
0J
0t
0F
0C
09
08
07
06
14
0^
0f
1g
0d
1N
0j
0_
1d
0g
#387500
1!
1A
1B
#390000
0!
0A
0B
0E
0H
0I
0K
1L
1O
0i
0k
0G
1n
1(
0)
0w
0v
0u
1^
0\
1t
0e
1j
1F
1C
19
18
17
16
1_
0^
0d
0j
1e
0_
1g
1d
0g
#392500
1!
1A
1B
#395000
0!
0A
0B
1E
1I
1G
1)
1]
1v
1l
1Y
0R
0m
1J
0U
0F
0C
07
0`
0b
0]
1f
1g
0c
1a
0d
0P
0N
0J
0a
1c
0e
0f
#397500
1!
1A
1B
#400000
0!
0A
0B
0E
0I
0L
0O
0Q
0S
0V
0W
1Z
0G
0n
0o
0p
1q
1%
0&
0'
0(
0)
0~
0}
0|
0X
1_
0T
1]
0l
0v
0M
1{
1P
0t
1J
1F
1C
09
11
17
10
1/
1.
1`
0_
0]
0g
1e
0P
0J
0`
1a
1g
0e
0a
#402500
1!
1A
1B
#405000
0!
0A
0B
1E
1I
1G
1)
1z
1w
1v
1u
1m
1J
0F
0C
08
07
06
03
#407500
1!
1A
1B
#410000
0!
0A
0B
0E
1H
0I
1K
0G
1n
1(
0)
0z
1x
0w
0v
1t
1F
1C
19
17
16
05
13
#412500
1!
1A
1B
#415000
0!
0A
0B
1E
1I
1G
1)
0x
1v
1\
0m
0J
0F
0C
07
15
1j
1e
1f
#417500
1!
1A
1B
#420000
0!
0A
0B
0E
0H
0I
0K
1i
1k
0G
0n
1o
1'
0(
0)
1z
1w
0u
0\
0f
0e
0j
1F
1C
18
06
03
1j
1e
#422500
1!
1A
1B
#425000
0!
0A
0B
1E
1I
1G
1)
1f
0z
1y
0w
1m
1J
0F
0C
16
04
13
0f
#427500
1!
1A
1B
#430000
0!
0A
0B
0E
1H
0I
1K
0G
1n
1(
0)
0v
1F
1C
17
#432500
1!
1A
1B
#435000
0!
0A
0B
1E
1I
1G
1)
0y
1w
1v
1u
1\
1M
0m
0J
0t
0F
0C
09
08
07
06
14
1f
1d
1N
0j
0e
0f
#437500
1!
1A
1B
#440000
0!
0A
0B
0E
0H
0I
0K
1L
1O
0i
0k
0G
0n
0o
1p
1&
0'
0(
0)
0w
0v
0u
0\
1t
1e
1j
1F
1C
19
18
17
16
0j
0e
#442500
1!
1A
1B
#445000
0!
0A
0B
1E
1I
1G
1)
1v
1l
1m
1J
0F
0C
07
1P
0N
0J
#447500
1!
1A
1B
#450000
0!
0A
0B
0E
0I
0L
0O
1Q
1W
0G
1n
1(
0)
1}
0l
0v
0M
0d
1e
0P
0t
1J
1F
1C
09
17
0/
1d
0e
1P
0J
#452500
1!
1A
1B
#455000
0!
0A
0B
1E
1I
1G
1)
1]
1z
1w
1v
1u
0m
1J
0F
0C
08
07
06
03
1e
1f
#457500
1!
1A
1B
#460000
0!
0A
0B
0E
1H
0I
1K
0G
0n
1o
1'
0(
0)
0z
1x
0w
0v
0f
1t
1F
1C
19
17
16
05
13
#462500
1!
1A
1B
#465000
0!
0A
0B
1E
1I
1G
1)
1f
0]
0x
1v
1\
1m
0J
0F
0C
07
15
0f
1j
#467500
1!
1A
1B
#470000
0!
0A
0B
0E
0H
0I
0K
1i
1k
0G
1n
1(
0)
1z
1w
0u
0\
0e
0j
1F
1C
18
06
03
1j
1e
#472500
1!
1A
1B
#475000
0!
0A
0B
1E
1I
1G
1)
1]
0z
1y
0w
0m
1J
0F
0C
16
04
13
1^
1f
0e
1_
0f
0d
1`
0g
1a
#477500
1!
1A
1B
#480000
0!
0A
0B
0E
1H
0I
1K
0G
0n
0o
0p
0q
1r
1$
0%
0&
0'
0(
0)
0v
1F
1C
17
#482500
1!
1A
1B
#485000
0!
0A
0B
1E
1I
1G
1)
0]
0y
1w
1v
1u
1\
1M
1m
0J
0t
0F
0C
09
08
07
06
14
0^
1d
1N
0j
0d
#487500
1!
1A
1B
#490000
0!
0A
0B
0E
0H
0I
0K
1L
1O
0i
0k
0G
1n
1(
0)
0w
0v
0u
0\
1t
1e
1j
1F
1C
19
18
17
16
0j
0e
#492500
1!
1A
1B
#495000
0!
0A
0B
1E
1I
1G
1)
1]
1v
1l
1R
0m
1J
0F
0C
07
1^
0_
0]
1g
0P
0N
0J
0^
1d
0g
1e
1f
0d
1h
#497500
1!
1A
1B
#500000
0!
0A
0B
0E
0I
0L
0O
0Q
0W
0Z
0G
0n
0r
0s
0#
0$
0(
0)
0}
0Y
1]
0R
0l
0v
0M
0f
0{
0c
1d
0e
1P
0t
1J
1F
1C
09
01
17
1/
0h
0`
0]
1e
0d
0P
0J
0a
0e
#502500
1!
1A
1B
#505000
0!
0A
0B
1E
1I
1G
1)
1z
1w
1v
1u
1m
1J
0F
0C
08
07
06
03
#507500
1!
1A
1B
#510000
0!
0A
0B
0E
1H
0I
1K
0G
1n
1(
0)
0z
1x
0w
0v
1t
1F
1C
19
17
16
05
13
#512500
1!
1A
1B
#515000
0!
0A
0B
1E
1I
1G
1)
0x
1v
1\
0m
0J
0F
0C
07
15
1j
1e
1f
#517500
1!
1A
1B
#520000
0!
0A
0B
0E
0H
0I
0K
1i
1k
0G
0n
1o
1'
0(
0)
1z
1w
0u
0\
0f
0e
0j
1F
1C
18
06
03
1j
1e
#522500
1!
1A
1B
#525000
0!
0A
0B
1E
1I
1G
1)
1f
0z
1y
0w
1m
1J
0F
0C
16
04
13
0f
#527500
1!
1A
1B
#530000
0!
0A
0B
0E
1H
0I
1K
0G
1n
1(
0)
0v
1F
1C
17
#532500
1!
1A
1B
#535000
0!
0A
0B
1E
1I
1G
1)
0y
1w
1v
1u
1\
1M
0m
0J
0t
0F
0C
09
08
07
06
14
1f
1d
1N
0j
0e
0f
#537500
1!
1A
1B
#540000
0!
0A
0B
0E
0H
0I
0K
1L
1O
0i
0k
0G
0n
0o
1p
1&
0'
0(
0)
0w
0v
0u
0\
1t
1e
1j
1F
1C
19
18
17
16
0j
0e
#542500
1!
1A
1B
#545000
0!
0A
0B
1E
1I
1G
1)
1v
1l
1m
1J
0F
0C
07
1P
0N
0J
#547500
1!
1A
1B
#550000
0!
0A
0B
0E
0I
0L
0O
1Q
1W
0G
1n
1(
0)
1#!
1~
1}
1|
0l
0v
0M
0d
1e
0P
0t
1J
1F
1C
09
17
00
0/
0.
0+
1d
0e
1P
0J
#552500
1!
1A
1B
#555000
0!
0A
0B
1E
1I
1G
1)
1]
1z
1w
1v
1u
0m
1J
0F
0C
08
07
06
03
1e
1f
#557500
1!
1A
1B
#560000
0!
0A
0B
0E
1H
0I
1K
0G
0n
1o
1'
0(
0)
0z
1x
0w
0v
0f
1t
1F
1C
19
17
16
05
13
#562500
1!
1A
1B
#565000
0!
0A
0B
1E
1I
1G
1)
1f
0]
0x
1v
1\
1m
0J
0F
0C
07
15
0f
1j
#567500
1!
1A
1B
#570000
0!
0A
0B
0E
0H
0I
0K
1i
1k
0G
1n
1(
0)
1z
1w
0u
0\
0e
0j
1F
1C
18
06
03
1j
1e
#572500
1!
1A
1B
#575000
0!
0A
0B
1E
1I
1G
1)
1]
0z
1y
0w
0m
1J
0F
0C
16
04
13
1^
1f
0e
1_
0f
0d
1g
#577500
1!
1A
1B
#580000
0!
0A
0B
0E
1H
0I
1K
0G
0n
0o
0p
1q
1%
0&
0'
0(
0)
0v
1F
1C
17
#582500
1!
1A
1B
#585000
0!
0A
0B
1E
1I
1G
1)
0]
0y
1w
1v
1u
1\
1M
1m
0J
0t
0F
0C
09
08
07
06
14
0^
1d
1N
0j
0d
#587500
1!
1A
1B
#590000
0!
0A
0B
0E
0H
0I
0K
1L
1O
0i
0k
0G
1n
1(
0)
0w
0v
0u
0\
1t
1e
1j
1F
1C
19
18
17
16
0j
0e
#592500
1!
1A
1B
#595000
0!
0A
0B
1E
1I
1G
1)
1]
1v
1l
1R
0m
1J
0F
0C
07
1^
1`
0_
0]
0g
0P
0N
0J
0`
0^
1d
1a
1g
1e
1f
0a
0d
#597500
1!
1A
1B
#600000
0!
0A
0B
0E
0I
0L
0O
0Q
1S
0W
0G
0n
1o
1'
0(
0)
0#!
1!!
0~
0}
1]
0l
0v
0M
0f
1{
1d
1P
0t
1J
1F
1C
09
11
17
1/
1.
0-
1+
1^
0]
0e
0d
0P
0J
0^
1d
1e
0d
#602500
1!
1A
1B
#605000
0!
0A
0B
1E
1I
1G
1)
1f
1z
1w
1v
1u
1m
1J
0F
0C
08
07
06
03
0f
#607500
1!
1A
1B
#610000
0!
0A
0B
0E
1H
0I
1K
0G
1n
1(
0)
0z
1x
0w
0v
1t
1F
1C
19
17
16
05
13
#612500
1!
1A
1B
#615000
0!
0A
0B
1E
1I
1G
1)
0x
1v
1\
0m
0J
0F
0C
07
15
1^
1f
1j
0e
0f
1d
#617500
1!
1A
1B
#620000
0!
0A
0B
0E
0H
0I
0K
1i
1k
0G
0n
0o
1p
1&
0'
0(
0)
1z
1w
0u
0^
0\
1e
0j
1F
1C
18
06
03
1^
0d
1j
0e
1d
#622500
1!
1A
1B
#625000
0!
0A
0B
1E
1I
1G
1)
0z
1y
0w
1m
1J
0F
0C
16
04
13
#627500
1!
1A
1B
#630000
0!
0A
0B
0E
1H
0I
1K
0G
1n
1(
0)
0v
1F
1C
17
#632500
1!
1A
1B
#635000
0!
0A
0B
1E
1I
1G
1)
0y
1w
1v
1u
1\
1M
0m
0J
0t
0F
0C
09
08
07
06
14
1_
0^
0d
1N
0j
1e
1`
0_
1f
0g
1d
0`
1a
1g
0a
#637500
1!
1A
1B
#640000
0!
0A
0B
0E
0H
0I
0K
1L
1O
0i
0k
0G
0n
1o
1'
0(
0)
0w
0v
0u
1^
0\
0f
1t
0e
1j
1F
1C
19
18
17
16
1_
0^
0d
0j
1e
1`
0_
0g
1d
0`
1a
1g
0a
#642500
1!
1A
1B
#645000
0!
0A
0B
1E
1I
1G
1)
1f
1v
1l
1m
1J
0F
0C
07
0f
1P
0N
0J
#647500
1!
1A
1B
#650000
0!
0A
0B
0E
0I
0L
0O
1Q
1W
0G
1n
1(
0)
0!!
1}
1T
0l
0v
0M
1a
0d
0e
0P
0t
1J
1F
1C
09
17
0/
1-
1d
0a
1e
1P
0J
