contador_1_digito/simulation/qsim/contador_1_digito.msim.vcd
$comment
	File created using the following command:
		vcd file contador_1_digito.msim.vcd -direction
$end
$date
	Mon Apr 11 14:18:04 2022
$end
$version
	ModelSim Version 2020.1
$end
$timescale
	1ps
$end

$scope module contador_1_digito_vlg_vec_tst $end
$var reg 1 ! CLK $end
$var wire 1 " digit [3] $end
$var wire 1 # digit [2] $end
$var wire 1 $ digit [1] $end
$var wire 1 % digit [0] $end

$scope module i1 $end
$var wire 1 & gnd $end
$var wire 1 ' vcc $end
$var wire 1 ( unknown $end
$var tri1 1 ) devclrn $end
$var tri1 1 * devpor $end
$var tri1 1 + devoe $end
$var wire 1 , ~QUARTUS_CREATED_GND~I_combout $end
$var wire 1 - CLK~input_o $end
$var wire 1 . CLK~inputCLKENA0_outclk $end
$var wire 1 / count:temp[0]~0_combout $end
$var wire 1 0 count:temp[0]~q $end
$var wire 1 1 digit[0]~0_combout $end
$var wire 1 2 digit[0]~reg0_q $end
$var wire 1 3 count:temp[1]~feeder_combout $end
$var wire 1 4 count:temp[1]~q $end
$var wire 1 5 Add0~0_combout $end
$var wire 1 6 count:temp[2]~feeder_combout $end
$var wire 1 7 count:temp[2]~q $end
$var wire 1 8 temp~1_combout $end
$var wire 1 9 count:temp[3]~feeder_combout $end
$var wire 1 : count:temp[3]~q $end
$var wire 1 ; temp~0_combout $end
$var wire 1 < digit[1]~reg0_q $end
$var wire 1 = digit[2]~reg0_q $end
$var wire 1 > digit[3]~reg0_q $end
$upscope $end
$upscope $end
$enddefinitions $end
#0
$dumpvars
0!
0%
0$
0#
0"
0&
1'
x(
1)
1*
1+
0,
0-
0.
1/
00
11
02
03
04
05
06
07
08
09
0:
0;
0<
0=
0>
$end
#50000
1!
1-
1.
10
12
1%
1;
01
0/
13
#100000
0!
0-
0.
#150000
1!
1-
1.
14
00
1<
02
0%
1$
11
1/
#200000
0!
0-
0.
#250000
1!
1-
1.
10
12
1%
0;
15
01
0/
03
16
#300000
0!
0-
0.
#350000
1!
1-
1.
17
04
00
1=
0<
02
0%
0$
1#
11
1/
#400000
0!
0-
0.
#450000
1!
1-
1.
10
12
1%
1;
01
0/
13
#500000
0!
0-
0.
#550000
1!
1-
1.
14
00
1<
02
0%
1$
11
1/
#600000
0!
0-
0.
#650000
1!
1-
1.
10
12
1%
0;
18
05
01
0/
19
03
06
#700000
0!
0-
0.
#750000
1!
1-
1.
1:
07
04
00
1>
0=
0<
02
0%
0$
0#
1"
11
1/
#800000
0!
0-
0.
#850000
1!
1-
1.
10
12
1%
08
01
0/
09
#900000
0!
0-
0.
#950000
1!
1-
1.
0:
00
0>
02
0%
0"
11
1/
